<svg width="25" height="24" viewBox="0 0 25 24" fill="none" xmlns="http://www.w3.org/2000/svg">
<g id="Icon/Feather Icon">
<path id="Vector" d="M11.5 19C15.9183 19 19.5 15.4183 19.5 11C19.5 6.58172 15.9183 3 11.5 3C7.08172 3 3.5 6.58172 3.5 11C3.5 15.4183 7.08172 19 11.5 19Z" stroke="#9E9E9E" stroke-width="2" stroke-linecap="round" stroke-linejoin="round"/>
<path id="Vector_2" d="M21.4999 21.0004L17.1499 16.6504" stroke="#9E9E9E" stroke-width="2" stroke-linecap="round" stroke-linejoin="round"/>
</g>
</svg>
