<?xml version="1.0" encoding="UTF-8"?>
<svg version="1.1" viewBox="0 0 1040 1600" width="1280" height="1280" xmlns="http://www.w3.org/2000/svg">
<path transform="translate(335 -.394)" d="m0 0c1.65-0.00489 3.31-0.0111 4.96-0.0185 4.53-0.0164 9.05-0.0141 13.6-0.00863 4.89 0.00267 9.78-0.0119 14.7-0.0241 9.57-0.021 19.1-0.0256 28.7-0.0238 7.78 0.00131 15.6-0.0025 23.3-0.00993 2.24-0.0021 4.49-0.0042 6.73-0.00629 1.12-0.00104 2.23-0.00209 3.38-0.00316 21.1-0.0189 42.2-0.0179 63.3-0.011 19.3 0.00557 38.6-0.0152 57.9-0.0484 19.8-0.0338 39.6-0.0489 59.5-0.0443 11.1 0.00224 22.3-0.00297 33.4-0.0279 9.47-0.021 18.9-0.0246 28.4-0.0057 4.83 0.00914 9.66 0.0103 14.5-0.0104 4.43-0.0188 8.86-0.0141 13.3 0.00855 1.6 0.00417 3.19 3.52e-5 4.79-0.0136 12.8-0.102 24.3 2.06 34.4 10.6 9.92 10.3 12.4 22.6 12.2 36.4-0.654 11.7-3.75 22-11.9 30.8-8.37 6.92-18 10-28.8 9.99-1.2-0.00322-2.4-0.00645-3.63-0.00977-1.86-0.0126-1.86-0.0126-3.75-0.0254-1.26-0.00451-2.52-0.00902-3.82-0.0137-3.1-0.0117-6.2-0.029-9.3-0.0488 0.311 1.11 0.623 2.21 0.944 3.35 2.93 10.4 5.69 20.9 8.33 31.4 0.401 1.59 0.801 3.18 1.2 4.77 0.856 3.39 1.71 6.78 2.56 10.2 2.32 9.2 4.64 18.4 6.96 27.6 0.242 0.957 0.483 1.91 0.733 2.9 3.8 15.1 7.63 30.1 11.5 45.2 0.256 1 0.512 2 0.776 3.04 2.49 9.75 4.99 19.5 7.49 29.2 4.24 16.6 8.49 33.1 12.7 49.7 0.353 1.4 0.706 2.81 1.06 4.21 0.48 1.9 0.956 3.8 1.43 5.7 0.401 1.6 0.401 1.6 0.809 3.22 0.565 2.5 0.565 2.5 0.565 4.5l3.64-1.54c24.1-10 49.2-16.7 75.4-17.5 0.902-0.04 1.8-0.0799 2.73-0.121 51-1.22 98 19.7 135 54.3 50.3 48.4 72.3 123 73.8 191 0.928 50.4-5.62 100-22.2 148-0.338 0.988-0.675 1.98-1.02 2.99-5.27 15.3-11.3 30.2-18 45-0.349 0.778-0.698 1.56-1.06 2.36-10.4 23-23.2 45.3-38.5 65.4-0.594 0.806-0.594 0.806-1.2 1.63-1.24 1.6-1.24 1.6-2.7 3.14-2.35 2.69-3.49 4.51-3.7 8.13 0.238 3.15 0.653 6.21 1.16 9.32 0.212 1.49 0.212 1.49 0.429 3.01 0.455 3.13 0.949 6.24 1.45 9.36 2.27 14.8 3.85 29.7 5.12 44.6 0.0735 0.854 0.147 1.71 0.223 2.59 2.41 29.8 0.814 59.8-2.22 89.4-3.42-2.59-6.13-5.17-8.75-8.56-2.86-3.66-5.74-7.29-8.69-10.9-0.752-0.917-1.5-1.83-2.28-2.78-0.754-0.919-1.51-1.84-2.29-2.79-1.5-1.83-3-3.67-4.5-5.5-0.749-0.915-1.5-1.83-2.27-2.77-1.44-1.75-2.87-3.51-4.3-5.27-4.63-5.66-9.27-11.3-13.9-17-5.35-6.49-10.7-13-16-19.5-2.25-2.75-4.5-5.5-6.75-8.25-1.51-1.84-3.01-3.69-4.5-5.54-3.75-4.63-7.54-9.21-11.4-13.7-0.684-0.794-1.37-1.59-2.07-2.41-5.59-5.23-11.8-6.24-19.2-6.09-12.5 1.89-20.5 11.2-29 19.8-1.08 1.09-2.16 2.17-3.24 3.25-2.32 2.32-4.63 4.65-6.94 6.97-3.65 3.68-7.31 7.35-11 11-7.76 7.78-15.5 15.6-23.3 23.4-8.39 8.43-16.8 16.9-25.2 25.3-3.64 3.65-7.28 7.31-10.9 11-2.25 2.27-4.51 4.53-6.77 6.79-1.05 1.05-2.1 2.11-3.14 3.16-1.42 1.44-2.85 2.87-4.28 4.29-0.799 0.803-1.6 1.61-2.42 2.43-1.94 1.7-1.94 1.7-3.94 1.7v2c-1.48 1.46-1.48 1.46-3.52 3.14-4.28 3.65-8.21 7.54-12.1 11.6-1.41 1.44-2.83 2.88-4.24 4.32-2.2 2.24-4.4 4.49-6.58 6.75-2.13 2.2-4.28 4.38-6.42 6.56-0.654 0.683-1.31 1.37-1.98 2.07-0.615 0.618-1.23 1.24-1.86 1.87-0.803 0.824-0.803 0.824-1.62 1.67-1.64 1.05-1.64 1.05-3.7 0.884-3.23-1.39-4.92-4.27-6.94-7.02-0.974-1.28-1.95-2.56-2.93-3.84-0.504-0.659-1.01-1.32-1.53-2-2.46-3.14-5.06-6.15-7.67-9.16-4.21-4.86-8.34-9.78-12.4-14.8-3.14-3.86-6.31-7.7-9.48-11.5-6.04-7.32-12.1-14.7-18.1-22-6.96-8.51-14-17-20.9-25.5-6.88-8.34-13.8-16.7-20.6-25.1-3.74-4.56-7.48-9.11-11.2-13.7-2.64-3.2-5.27-6.4-7.86-9.64-6.53-8.16-11.6-13.8-22.3-15.6-7.65-0.443-14.8 2.49-20.6 7.35-4.66 4.2-9.03 8.7-13.4 13.2-1.49 1.5-2.99 3-4.49 4.49-3.21 3.21-6.41 6.44-9.6 9.66-5.05 5.1-10.1 10.2-15.2 15.3-8 8.03-16 16.1-24 24.1-14.3 14.4-28.7 28.8-43 43.3-5.04 5.06-10.1 10.1-15.1 15.2-3.12 3.14-6.24 6.28-9.36 9.42-1.45 1.46-2.9 2.92-4.35 4.39-1.97 1.99-3.94 3.97-5.92 5.96-0.579 0.588-1.16 1.18-1.75 1.78-3.96 3.96-3.96 3.96-6.19 3.96v2c-3.31-0.569-4.77-1.44-6.92-3.99-0.527-0.617-1.05-1.23-1.6-1.87-0.552-0.664-1.1-1.33-1.67-2.01-0.577-0.681-1.15-1.36-1.75-2.06-3.99-4.73-7.92-9.51-11.8-14.3-2.54-3.11-5.14-6.18-7.74-9.24-4.12-4.85-8.17-9.75-12.2-14.7-2.57-3.13-5.19-6.22-7.81-9.31-4.12-4.85-8.17-9.75-12.2-14.7-2.57-3.13-5.19-6.22-7.81-9.31-4.12-4.85-8.17-9.75-12.2-14.7-2.57-3.13-5.19-6.22-7.81-9.31-4.05-4.77-8.04-9.58-12-14.4-5.47-6.71-11-13.4-16.5-20.1-0.535-0.65-1.07-1.3-1.62-1.97-1.47-1.79-2.96-3.57-4.44-5.34-0.837-1.01-1.67-2.01-2.54-3.05-5.33-5.85-10.8-9.33-18.9-9.77-8.5 0.468-16.4 4.31-22.5 10.1-1.02 1.16-2.02 2.33-3.02 3.51-4.41 5.07-9.14 9.79-13.9 14.5-0.982 0.981-1.96 1.96-2.94 2.94-2.64 2.64-5.29 5.28-7.93 7.92-2.78 2.77-5.55 5.54-8.32 8.32-5.25 5.24-10.5 10.5-15.7 15.7-5.97 5.96-11.9 11.9-17.9 17.9-11.8 11.8-23.5 23.5-35.3 35.3-1.2 1.2-2.39 2.42-3.54 3.66-1.37 1.24-1.37 1.24-3.37 1.24-0.485-3.56-0.962-7.12-1.44-10.7-0.202-1.48-0.202-1.48-0.408-2.99-1.55-11.7-2.31-23.3-2.36-35-0.00701-1.17-0.014-2.35-0.0213-3.56-0.0174-3.78-0.0239-7.56-0.0256-11.3-6.75e-4 -1.3-0.00135-2.59-0.00204-3.93 0.0238-28.8 2.23-56.7 6.63-85.2 0.108-0.704 0.215-1.41 0.326-2.13 0.292-1.9 0.59-3.79 0.889-5.69 0.881-7.4 0.429-11.5-3.94-17.5-0.453-0.66-0.907-1.32-1.37-2-0.97-1.41-1.95-2.82-2.93-4.22-2.58-3.69-5.1-7.41-7.62-11.1-0.5-0.738-1-1.48-1.52-2.24-6.36-9.43-11.9-19.3-17.2-29.3-0.704-1.31-0.704-1.31-1.42-2.65-25.7-48.1-39-103-45.6-157l-0.364-2.77c-5.4-41.6-1.5-84.7 8.36-125 0.262-1.08 0.523-2.16 0.792-3.27 5.44-21.9 13.5-42.9 24.2-62.7 0.338-0.642 0.676-1.28 1.02-1.94 13.2-25 31.4-48.9 54-66.1l3.04-2.45c36.7-29.4 83.7-42.2 130-37.7 19.7 2.22 38.1 7.53 56.8 14.1 2.92 1.02 5.84 2 8.78 2.97 8.46-32 16.9-64.1 25.2-96.2 8-30.7 16-61.4 24.1-92 0.621-2.36 1.24-4.71 1.86-7.07 0.96-3.64 1.92-7.28 2.88-10.9 0.515-1.95 1.03-3.9 1.54-5.85 0.456-1.72 0.456-1.72 0.921-3.48 0.263-0.995 0.526-1.99 0.797-3.01 0.506-1.84 1.08-3.66 1.68-5.48-1.19 0.0236-1.19 0.0236-2.41 0.0476-3.65 0.0629-7.31 0.102-11 0.14-1.25 0.0251-2.5 0.0503-3.79 0.0762-12.6 0.0992-23.8-2.37-33.1-11.5-8.38-9.77-10.4-19.6-10.2-32.3-0.0155-1.15-0.0309-2.29-0.0469-3.47 0.0484-10.6 2.52-19.7 9.43-28 11.2-10.9 23.5-12.5 38.3-12.5zm-184 423c-0.659 0.567-1.32 1.13-2 1.72-11.3 10.3-18.8 24.5-25 38.3-0.799 1.75-0.799 1.75-1.61 3.53-7.26 17-11.1 35.2-13.4 53.5-0.13 1-0.13 1-0.263 2.03-0.69 5.69-0.926 11.3-0.975 17-0.00979 0.947-0.0196 1.89-0.0297 2.87-0.351 42.8 3.39 88.9 22.3 128 2.53-1.26 2.63-2.09 3.67-4.67 0.491-1.19 0.491-1.19 0.991-2.41 0.538-1.32 0.538-1.32 1.09-2.67 16.8-40.2 38.5-77.8 62.2-114l2.05-3.14c11.1-17 22.7-33.5 35.4-49.3 1.2-1.5 2.38-3.02 3.55-4.54 0.953-1.19 0.953-1.19 1.93-2.4 3.2-4.87 4.19-10.7 5.56-16.3 0.307-1.22 0.615-2.45 0.932-3.7 0.645-2.58 1.29-5.16 1.92-7.74 0.81-3.3 1.64-6.6 2.48-9.89 0.798-3.16 1.58-6.32 2.36-9.48 0.299-1.18 0.598-2.36 0.906-3.58 0.267-1.1 0.535-2.2 0.81-3.34 0.239-0.966 0.478-1.93 0.724-2.93 0.415-2.9 0.224-4.89-0.616-7.69-12.7-12.8-36.1-19.4-53.7-19.6-19.2 0.348-37.1 7.57-51.3 20.6zm629 0c2.71 12.4 5.45 24.7 8.45 37 0.45 1.87 0.888 3.74 1.31 5.62 2.91 12.8 6.45 21.6 15.2 31.4 1.24 1.57 2.46 3.16 3.66 4.77 0.558 0.732 1.12 1.46 1.69 2.22 6.49 8.58 12.7 17.3 18.8 26.2 0.71 1.04 1.42 2.08 2.15 3.15 3.41 5.05 6.6 10.1 9.49 15.5 2.33 4.17 5 8.13 7.6 12.1 14.7 22.9 27.4 46.8 39.6 71.1 0.558 1.11 1.12 2.21 1.69 3.35 2.73 5.41 5.43 10.8 8.13 16.3 1.95 3.92 3.91 7.84 5.87 11.8 0.65 1.3 1.3 2.6 1.95 3.9l1.36 2.73c3.48-5.22 4.89-11.5 6.75-17.4 0.335-1.07 0.335-1.07 0.676-2.16 6.75-21.7 11.3-43.8 13.6-66.4l0.398-3.81c0.313-3.73 0.497-7.45 0.602-11.2 0.0272-0.921 0.0545-1.84 0.0825-2.79 1.2-48.2-6.53-103-40.7-140-8.24-8.41-18.3-15.2-29.4-19.2-1.06-0.391-2.12-0.781-3.21-1.18-27.1-8.62-54.6-0.807-75.8 17.2z" fill="#000102"/>
<path transform="translate(212,931)" d="m0 0c7.9 7.87 15.1 16.1 22 24.9 3.45 4.45 7.13 8.64 10.9 12.8 2.79 3.11 5.36 6.37 7.95 9.65 2.48 3.09 5.03 6.12 7.6 9.13 3.39 3.99 6.76 8 10.1 12.1 3.29 4.04 6.63 8.03 10 12 3.37 3.97 6.71 7.96 10 12 3.19 3.91 6.42 7.78 9.69 11.6 4.93 5.8 9.78 11.7 14.6 17.6 4.08 4.96 8.2 9.88 12.4 14.8 2.93 3.44 5.77 6.95 8.59 10.5 5.54 6.77 10.4 12.3 19.5 13.3 9.5 0.474 16.2-2.69 23.2-8.86 5.89-5.45 11.5-11.2 17.2-16.9 1.47-1.47 2.94-2.94 4.41-4.41 3.97-3.97 7.94-7.94 11.9-11.9 4.15-4.16 8.31-8.32 12.5-12.5 7.86-7.86 15.7-15.7 23.6-23.6 8.95-8.96 17.9-17.9 26.9-26.9 18.4-18.4 36.8-36.8 55.2-55.3 4.1 1.85 6.45 4.57 9.25 8 0.732 0.882 0.732 0.882 1.48 1.78 3.38 4.08 6.69 8.21 9.98 12.4 4.83 6.02 9.77 11.9 14.7 17.9 2.04 2.48 4.08 4.97 6.11 7.45 5.54 6.78 11.1 13.5 16.7 20.3 3.52 4.28 7.05 8.55 10.6 12.8 2.98 3.62 5.96 7.23 8.94 10.9 5.65 6.86 11.3 13.7 16.9 20.6 3.13 3.82 6.27 7.63 9.41 11.4 3.94 4.79 7.89 9.57 11.8 14.4 0.696 0.846 1.39 1.69 2.11 2.56 1.47 1.81 2.92 3.65 4.34 5.5 5.19 6.63 10.2 12.4 18.7 14.1 10.2 1.07 17-2.26 24.9-8.32 3.31-2.69 6.29-5.65 9.28-8.68 1.01-1.01 1.01-1.01 2.03-2.04 2.2-2.2 4.38-4.41 6.57-6.62 1.54-1.54 3.08-3.09 4.62-4.63 4.04-4.05 8.07-8.11 12.1-12.2 6.45-6.49 12.9-13 19.4-19.5 2.24-2.25 4.49-4.51 6.73-6.77 1.39-1.4 2.78-2.79 4.17-4.19 0.613-0.62 1.23-1.24 1.86-1.88 3.02-3.03 6.09-5.93 9.33-8.72 4.05-3.5 7.84-7.22 11.6-11 1.06-1.07 1.06-1.07 2.15-2.16 1.53-1.53 3.05-3.07 4.57-4.6 2.41-2.43 4.82-4.85 7.24-7.27 6.86-6.88 13.7-13.8 20.6-20.7 4.2-4.23 8.4-8.45 12.6-12.7 1.6-1.61 3.2-3.22 4.8-4.83 2.22-2.24 4.45-4.48 6.68-6.72 0.994-1.01 0.994-1.01 2.01-2.04 0.908-0.906 0.908-0.906 1.83-1.83 0.526-0.529 1.05-1.06 1.59-1.6 1.36-1.12 1.36-1.12 3.36-1.12 1.23 1.37 1.23 1.37 2.75 3.44 3.59 4.75 7.33 9.35 11.1 13.9 0.613 0.742 1.23 1.48 1.86 2.25 1.21 1.46 2.41 2.92 3.62 4.38 3.57 4.32 7.1 8.66 10.6 13 1.5 1.83 3 3.67 4.5 5.5 2.19 2.68 4.38 5.36 6.57 8.04 4.63 5.66 9.27 11.3 13.9 17 5.35 6.49 10.7 13 16 19.5 1.5 1.83 3 3.67 4.5 5.5 0.733 0.9 1.47 1.8 2.22 2.73 1.58 1.92 3.17 3.83 4.77 5.73 1.21 1.44 1.21 1.44 2.44 2.91 0.731 0.864 1.46 1.73 2.21 2.62 1.95 2.64 3.01 4.33 3.85 7.51-0.558 2.92-1.22 5.53-2.12 8.35-0.25 0.827-0.501 1.65-0.758 2.51-0.836 2.74-1.7 5.47-2.56 8.21-0.598 1.93-1.2 3.86-1.79 5.79-14 44.9-30.1 89-48.8 132-0.296 0.685-0.591 1.37-0.896 2.08-7.93 18.4-16.2 36.5-25 54.5-0.385 0.791-0.769 1.58-1.17 2.4-5.42 11.1-11.1 22.1-16.9 33-1.39 2.63-2.75 5.28-4.11 7.94-16.1 31.5-34.4 61.6-54 91.1-0.717 1.08-1.43 2.17-2.17 3.28-10.2 15.3-20.4 30.6-30.8 45.7-2.13 3.1-4.25 6.21-6.38 9.31-0.52 0.759-1.04 1.52-1.58 2.3-4.49 6.56-8.96 13.1-13.4 19.7-12 17.6-12 17.6-16.9 24.8-0.608 0.894-1.22 1.79-1.84 2.71-0.86 1.26-0.86 1.26-1.74 2.55-0.536 0.792-1.07 1.58-1.62 2.4-0.999 1.43-2.04 2.84-3.11 4.21-2.69 3.26-2.69 3.26-3.33 7.28 1.18 3.61 3.12 6.54 5.24 9.66 0.441 0.665 0.882 1.33 1.34 2.02 1.41 2.13 2.84 4.25 4.26 6.37 1.85 2.76 3.69 5.53 5.53 8.3 0.455 0.684 0.911 1.37 1.38 2.07 16.6 25 16.6 25 15.2 36.3-2.64 6.4-6.68 10.2-13 13-3.46 0.501-3.46 0.501-7.17 0.503-0.69 0.00581-1.38 0.0116-2.09 0.0176-2.3 0.0146-4.61 7.32e-4 -6.91-0.013-1.67 0.00461-3.34 0.011-5.01 0.0189-4.59 0.0167-9.18 0.00844-13.8-0.00394-4.95-0.00905-9.9 0.00492-14.9 0.0159-9.7 0.0178-19.4 0.0139-29.1 0.00235-7.88-0.00903-15.8-0.0103-23.6-0.0059-1.12 6.13e-4 -2.24 0.00123-3.4 0.00186-2.28 0.00128-4.55 0.00258-6.83 0.00389-21.4 0.0114-42.7-0.00171-64.1-0.0232-18.3-0.0179-36.7-0.0148-55 0.00368-21.3 0.0214-42.6 0.0298-63.8 0.0176-2.27-0.00127-4.54-0.00253-6.81-0.00377-1.12-6.17e-4 -2.23-0.00123-3.38-0.00187-7.87-0.00345-15.7 0.00238-23.6 0.0118-9.59 0.0112-19.2 0.00819-28.8-0.0131-4.89-0.0105-9.79-0.0146-14.7-0.0014-4.48 0.0119-8.96 0.00538-13.4-0.0159-1.62-0.00447-3.24-0.00219-4.86 0.0075-2.2 0.0122-4.41-3.11e-4 -6.61-0.0189-1.84-9.74e-4 -1.84-9.74e-4 -3.71-0.00197-5.35-0.776-9.06-2.99-12.8-7-3.78-5.6-4.52-9.79-3.69-16.5 3.04-8.11 8.3-15.3 13.1-22.5 0.752-1.14 1.5-2.29 2.25-3.43 3.44-5.24 6.93-10.5 10.5-15.6 0.568-0.819 1.14-1.64 1.72-2.48 1.05-1.5 2.12-3 3.2-4.48 2.64-3.65 2.64-3.65 2.88-7.97-0.82-1.26-0.82-1.26-1.66-2.55-0.383-0.597-0.766-1.19-1.16-1.81-1.47-2.24-2.99-4.43-4.53-6.63-1.18-1.71-2.37-3.42-3.55-5.13-0.618-0.891-1.24-1.78-1.87-2.7-3.11-4.5-6.19-9.02-9.26-13.5-1.27-1.86-2.54-3.73-3.81-5.59-0.632-0.927-1.26-1.85-1.91-2.81-1.86-2.73-3.72-5.46-5.59-8.19-7.38-10.8-14.7-21.6-22.1-32.5-4.41-6.49-8.84-13-13.3-19.4-4.04-5.9-8.06-11.8-12-17.8-1.36-2.05-2.73-4.09-4.11-6.12-14.2-21-27.2-42.8-39.8-64.8-0.483-0.837-0.966-1.67-1.46-2.54-6.96-12.1-13.3-24.6-19.7-37-2.92-5.68-5.86-11.4-8.87-17-34.1-63.8-60-133-81.3-202-0.362-1.16-0.362-1.16-0.732-2.35-0.677-2.18-1.34-4.37-2.01-6.56-0.378-1.24-0.756-2.48-1.15-3.76-0.762-3.1-1.2-5.12-0.803-8.27 1.81-2.43 1.81-2.43 4.4-5.01 0.474-0.478 0.947-0.956 1.44-1.45 1.59-1.6 3.2-3.18 4.81-4.76 1.14-1.14 2.29-2.29 3.43-3.43 3.1-3.11 6.22-6.2 9.35-9.28 3.26-3.23 6.51-6.47 9.75-9.71 6.15-6.14 12.3-12.3 18.5-18.4 7.02-6.97 14-13.9 21-20.9 14.4-14.4 28.9-28.7 43.3-43z" fill="#000102"/>
</svg>
