<?xml version="1.0" encoding="UTF-8"?>
<svg version="1.1" viewBox="0 0 1600 896" width="1280" height="1280" xmlns="http://www.w3.org/2000/svg">
<path transform="translate(475)" d="m0 0c0.33 0.66 0.66 1.32 1 2 1.13-0.351 2.27-0.701 3.44-1.06 4.67-1.14 8.93-1.33 13.6 0.0625 3.42 2.76 6.64 5.79 7.37 10.3 0.235 9.81-2.48 18.5-5.37 27.7-0.447 1.46-0.894 2.93-1.34 4.39-10 32.6-21.7 69.3-43 96.4-1.76 2.19-1.76 2.19-3.25 4.94-0.464 0.732-0.928 1.46-1.41 2.22h-2c-0.231 0.717-0.461 1.43-0.699 2.17-7.51 16.3-30.3 26.7-46.2 32.7-17.6 6.36-36.8 10.6-55.6 9.91-12.9-0.882-12.9-0.882-24.4 3.76-2.69 2.81-4.75 5.96-6.72 9.3-1.36 2.24-2.84 4.33-4.4 6.44-3.06 4.16-5.99 8.39-8.88 12.7-0.646 0.954-1.29 1.91-1.96 2.89-4.58 6.99-8.56 14.3-12.6 21.6-1.47 2.67-2.96 5.31-4.54 7.92-8.06 13.5-14.6 28.2-19.2 43.2-0.778 2.5-1.72 4.89-2.72 7.3 2.65-3.21 4.97-6.44 7.12-10 16.2-25.5 38.4-46.8 68.4-54.3 6.2-1.3 12.2-1.89 18.6-1.93 0.763-0.0071 1.53-0.0142 2.31-0.0215 24.8-0.178 48.4 2.08 72.7 6.66 1.18 0.218 1.18 0.218 2.38 0.439 16.1 3 16.1 3 22.5 7.12 1.44 2.63 1.44 2.63 2 5 0.33 0.66 0.66 1.32 1 2 0.681 4.16 0.999 8.21-1.11 12-1.85 2.15-3.84 4.07-5.89 6.02-0.995 1.02-1.99 2.04-2.97 3.07-5.78 5.97-11.7 11.5-18.2 16.7-2.48 1.98-4.87 4.02-7.26 6.1-23.9 20.7-52.9 40.9-85.8 40.5l-3.59-0.0308c-9.04-0.159-17.4-0.931-26.2-3.34-0.682-0.188-1.36-0.376-2.07-0.57-9.39-2.67-18.3-6.3-27.2-10.4-1.32-0.592-1.32-0.592-2.67-1.2-6.61-3.15-11.2-6.93-14.4-13.6-0.34-1.11-0.34-1.11-0.688-2.25l-1-3c-5.21 14.2-8.79 28.8-12.2 43.5-0.523 2.26-1.06 4.51-1.6 6.77-1.8 7.56-3.18 15.1-4.33 22.8-0.169 1.09-0.338 2.18-0.512 3.3-0.931 6.13-1.66 12.2-2.11 18.4-0.25 2.15-0.25 2.15-1.25 4.15-0.528 4.61-0.774 9.25-1.06 13.9-0.0442 0.708-0.0884 1.42-0.134 2.14-1.49 24.6-1.11 49 0.134 73.6 0.0434 0.863 0.0868 1.73 0.131 2.62 0.125 2.43 0.259 4.87 0.396 7.3 0.0386 0.728 0.0772 1.46 0.117 2.21 0.184 3.75 0.184 3.75 1.42 7.25 0.327 2.83 0.614 5.66 0.875 8.5 1.25 12.6 3.24 25.1 6.12 37.5 0.35 2 0.692 4 1 6h2c1.08 5.01 2.05 9.95 2.5 15.1 0.165 1.3 0.33 2.6 0.5 3.94l2 1c0.393 2.32 0.507 4.62 0.656 6.97 0.17 1.01 0.17 1.01 0.344 2.03l2 1c2.69 5.76 3.5 11.7 4 18h2c1.6 3.51 2.22 6.14 2 10h2c0.306 0.703 0.612 1.41 0.927 2.13 18.9 43.3 41.6 83.3 72.7 119 1.49 1.73 2.96 3.48 4.43 5.22 7.49 8.87 15.2 17.2 24.1 24.7 1.88 1.66 3.64 3.39 5.4 5.18 3.66 3.71 7.54 7.1 11.5 10.5 1.01 0.884 2.02 1.77 3.02 2.65 8.36 7.31 17 14.1 25.9 20.8 1.93 1.45 3.85 2.9 5.78 4.35 22.3 16.7 46.7 31.7 72 43.4 4.47 2.45 6.64 4.7 8.19 9.56 0.233 6.05-0.441 10.6-4.44 15.2-4.59 2.67-9.2 3.74-14.5 2.53-2.09-0.779-4.07-1.68-6.08-2.66-0.756-0.353-1.51-0.707-2.29-1.07-10.5-5.03-20.6-10.9-30.6-16.8-1.1-0.645-1.1-0.645-2.22-1.3-3.69-2.17-7.35-4.37-11-6.61-1.88-1.15-3.77-2.28-5.66-3.41-9.54-5.76-18.4-12.2-27.1-19.1-1.89-1.49-3.8-2.96-5.7-4.43-14.7-11.3-28.8-23.4-41.8-36.7-1.42-1.39-2.96-2.66-4.51-3.91-3.05-2.6-5.5-5.36-8.09-8.4-2-2.27-4.12-4.36-6.29-6.47-4.05-4.01-7.64-8.25-11.2-12.7-1.69-2.08-3.4-4.12-5.17-6.13-11.9-13.5-22.3-28-32.1-43.1-1.17-1.77-2.38-3.52-3.59-5.27-7.4-10.7-13.5-22-19.6-33.5-0.698-1.31-0.698-1.31-1.41-2.65-8.46-16-15.1-32.5-21.6-49.3-0.333-0.842-0.665-1.68-1.01-2.55-1.16-2.97-1.99-5.23-1.99-8.45l-2-1c0.33-0.66 0.66-1.32 1-2h-2l-0.312-2.94c-0.751-5.26-1.86-11.2-5.69-15.1-0.309-2.03-0.309-2.03-0.438-4.5-0.373-4.68-1.39-8.82-2.84-13.3-0.937-2.9-1.63-5.79-2.22-8.79-0.475-2.56-0.475-2.56-1.5-5.44-0.144-1.13-0.289-2.27-0.438-3.44-0.348-3.41-0.348-3.41-1.62-5.62-1.3-2.68-1.07-5.01-0.938-7.94h-1c-0.642-4.1-1.26-8.21-1.88-12.3l-0.527-3.36c-3.25-22-3.93-44-3.86-66.2 0.0107-3.92 3.16e-5 -7.84-0.0127-11.8-0.0293-55.2-0.0293-55.2 5.78-80.1 0.82-3.74 1.32-7.53 1.87-11.3 1.22-7.96 2.86-15.7 4.96-23.5 0.803-2.98 1.59-5.97 2.37-8.96 0.618-2.33 1.24-4.67 1.86-7 0.439-1.67 0.439-1.67 0.888-3.37 1.57-5.86 3.31-11.5 5.55-17.1 1.29-3.65 2.33-7.18 3-11h2c-0.227-0.578-0.454-1.16-0.688-1.75l-0.312-2.25c0.429-0.563 0.859-1.13 1.3-1.71 2.15-2.91 3.26-5.86 4.57-9.23l0.8-2.03c1.19-3.02 2.33-6.04 3.4-9.1 10.9-30.5 32-68 56.1-90.2 5.12-5 7.53-8.09 7.82-15.4 0.0485-0.72 0.0971-1.44 0.147-2.18 0.102-1.53 0.195-3.06 0.279-4.59 0.222-3.97 0.524-7.93 0.828-11.9 0.0583-0.77 0.117-1.54 0.177-2.33 0.667-8.38 2.25-16.3 4.57-24.4 0.331-1.19 0.663-2.38 1-3.6 0.927-3.16 1.93-6.28 3-9.4 0.26-0.776 0.521-1.55 0.789-2.35 4.35-11.8 10.9-26.9 20.2-35.6l2.38-3.06c13.9-16.3 37.5-28.1 57.1-35.9 1.65-0.661 3.29-1.34 4.93-2.05 6.48-2.8 13.1-5.25 19.7-7.58 0.823-0.289 1.65-0.578 2.49-0.876 5.01-1.74 10-3.33 15.1-4.82 2.21-0.662 4.39-1.38 6.57-2.12 9.25-3.1 18.5-5.87 28-7.85 2.88-0.609 2.88-0.609 5.68-2.71zm-21.8 36.7c-1.15 0.369-2.3 0.737-3.48 1.12-1.22 0.394-2.45 0.789-3.71 1.2-1.89 0.572-3.77 1.14-5.66 1.71-6.85 2.09-13.6 4.39-20.3 6.85-0.777 0.281-1.55 0.562-2.35 0.851-4.4 1.63-8.58 3.49-12.8 5.64-2.86 1.43-5.81 2.61-8.77 3.82-6.08 2.59-11.6 5.55-17.1 9.12-1.19 0.747-2.39 1.49-3.59 2.24-1.26 0.795-2.53 1.59-3.79 2.39-0.596 0.372-1.19 0.745-1.8 1.13-3.34 2.13-6.1 4.37-8.82 7.25-0.99 0.784-1.98 1.57-3 2.38-3.03 2.65-5 5.2-7 8.62-0.559 0.949-1.12 1.9-1.7 2.88-1.21 2.07-2.42 4.14-3.62 6.22-1.03 1.77-2.1 3.52-3.24 5.21-2 3.72-2.95 7.55-4.01 11.6-0.417 1.57-0.834 3.14-1.25 4.71-0.199 0.754-0.399 1.51-0.604 2.29-0.473 1.68-1.04 3.34-1.63 4.98-1.36 4.4-1.94 8.84-2.57 13.4-0.201 1.35-0.201 1.35-0.406 2.72-0.81 5.71-1.1 11.2-0.969 17 3.25 1.95 5.43 2.18 9.19 1.9 1.02-0.0757 2.04-0.151 3.08-0.229 1.08-0.097 2.17-0.194 3.29-0.294 1.12-0.097 2.24-0.194 3.39-0.294 25.7-2.42 52.4-9.44 70.1-29.4 2.92-3.45 2.92-3.45 3.91-7.65h2c4.87-6.79 8.81-14.3 12.4-21.8 1.14-2.34 2.3-4.65 3.5-6.96 4.16-8.05 7.7-16.1 10.8-24.6 1.06-2.93 2.17-5.8 3.36-8.67 2.2-5.41 3.98-11 5.79-16.5 0.705-2.1 1.47-4.18 2.32-6.22 0.955-2.53 0.754-3.7-0.172-6.2-3.97-0.196-7.04 0.463-10.8 1.69zm-123 236c-1.64 0.638-1.64 0.638-3.31 1.29-7.41 3.69-13.5 8.17-19.7 13.7l-2.18 1.97c-5.38 5.11-9.61 10.9-13.8 17 2.16 4.32 10.3 5.79 14.8 7.3 19.2 6.11 37.2 5.18 55.1-3.98 27.5-14.6 27.5-14.6 48.1-36.3-2.48-0.484-4.96-0.962-7.44-1.44-1.03-0.202-1.03-0.202-2.08-0.408-8.46-1.61-16.8-2.31-25.4-2.36-0.916-0.0057-1.83-0.0114-2.77-0.0173-1.92-0.00938-3.85-0.016-5.77-0.0198-2.91-0.00972-5.83-0.0408-8.74-0.0723-13.7-0.114-13.7-0.114-26.8 3.31zm-76 36v2l2-1-2-1zm-52 182v5h1v-5h-1zm1 15v6h1v-6h-1zm1 11v6h1v-6h-1zm1 9 1 3zm1 8 1 4zm1 8 1 3zm2 12 1 3zm33 23 1 3zm-23 21 1 2zm31 7 1 2zm14 37 1 2z" fill="#FAFAFA"/>
<path transform="translate(815,272)" d="m0 0v2c0.639 0.227 1.28 0.454 1.94 0.688 2.06 1.31 2.06 1.31 2.62 3.75 0.217 1.27 0.217 1.27 0.438 2.56 0.979 1.02 1.98 2.02 3 3 0.365 1.32 0.694 2.66 1 4 0.966 2.02 1.97 4.02 3 6 0.667 1.33 1.33 2.67 2 4 0.516 1.01 1.03 2.02 1.56 3.06 1.44 2.94 1.44 2.94 2.44 5.94 0.643 1.18 1.31 2.35 2 3.5 1.33 2.22 2.17 4.01 3 6.5 0.789 1.49 1.6 2.97 2.44 4.44 2.15 3.79 4.18 7.42 5.56 11.6 0.66 0.66 1.32 1.32 2 2 0.667 1.33 1.33 2.67 2 4 0.516 0.681 1.03 1.36 1.56 2.06 1.6 2.15 2.25 4.16 2.88 6.75 1.34 5.6 1.34 5.6 4.56 10.2 0.699 1.32 1.37 2.65 2 4 0.949 2.06 0.949 2.06 2.44 3.88 1.56 2.12 1.56 2.12 2.28 4.17 1.16 2.22 1.16 2.22 3.9 2.8 1.14 0.167 2.28 0.334 3.46 0.505 0.98 0.15 0.98 0.15 1.98 0.304 1.46 0.221 2.93 0.434 4.39 0.639 2.41 0.338 4.82 0.698 7.22 1.06 9.64 1.45 19.3 2.78 29 4.12 6.19 0.858 12.4 1.73 18.6 2.6 4.67 0.658 9.34 1.3 14 1.92 2.97 0.402 5.95 0.819 8.92 1.24 1.39 0.194 2.78 0.381 4.18 0.562 9.5 1.24 18.2 2.91 25.3 9.7 1.56 2.84 1.53 4.31 1.38 7.5 0.33 0.742 0.66 1.48 1 2.25 1.42 3.9 1.76 7.66 1 11.8-2.81 5.61-6.21 9.63-10.7 14-0.641 0.639-1.28 1.28-1.94 1.94-1.35 1.34-2.71 2.69-4.06 4.02-2.06 2.03-4.1 4.06-6.15 6.1-1.32 1.31-2.65 2.63-3.97 3.94-0.602 0.598-1.2 1.2-1.83 1.81-3.06 3.01-6.17 5.91-9.41 8.71-3.69 3.2-7.16 6.56-10.6 10-0.591 0.595-1.18 1.19-1.79 1.8-1.86 1.88-3.72 3.75-5.58 5.63-2.46 2.48-4.91 4.96-7.38 7.44-0.585 0.588-1.17 1.18-1.77 1.78-3.63 3.62-7.33 7.1-11.3 10.4-2.32 2.14-4.31 4.23-4.95 7.38 0.111 10.3 2.26 20.6 4.35 30.7 1.24 6.13 2.19 12.3 3.17 18.5 1.61 10.2 3.28 20.4 5.26 30.5 0.898 4.91 1.55 9.85 2.19 14.8 0.158 2.52 0.158 2.52 1.43 3.6 1.25 15.3 1.25 15.3-2.12 20.2-5.9 5.64-11.6 8.74-19.9 8.75-8.65-1.6-16.3-5.98-23.9-10.1-1.3-0.684-2.6-1.37-3.9-2.05-2.57-1.35-5.13-2.7-7.7-4.06-2.86-1.51-5.73-3.02-8.59-4.52-8.78-4.59-17.5-9.27-26.3-13.9-1.84-0.984-3.68-1.97-5.52-2.95-5.04-2.69-10.1-5.39-15-8.2-0.693-0.386-1.39-0.772-2.1-1.17-1.73-0.967-3.45-1.95-5.17-2.93-3.32-1.34-4.38-1.07-7.79-0.125-2.05 0.924-4.07 1.92-6.06 2.96-0.864 0.448-0.864 0.448-1.75 0.905-1.88 0.977-3.76 1.96-5.63 2.95-1.32 0.69-2.65 1.38-3.97 2.07-8.26 4.32-16.4 8.75-24.6 13.3-14.5 7.98-29.4 15.4-44.2 22.9-1.69 0.862-3.38 1.74-5.06 2.62-5.67 2.68-11 2.77-16.9 1.02-5.71-2.19-9.45-5.83-12.9-10.7-0.812-3.38-0.812-3.38-1-6h-2c0.284-3.02 0.577-6.04 0.875-9.06 0.0786-0.848 0.157-1.7 0.238-2.57 0.503-5.01 1.46-9.52 2.89-14.4 0.382-2.65 0.72-5.28 1-7.94 0.966-8.47 0.966-8.47 2.06-12.5 0.899-3.42 1.32-6.59 1.59-10.1 0.385-2.76 1.09-5.4 1.79-8.1 1.11-4.72 1.84-9.52 2.62-14.3 0.173-1.03 0.347-2.07 0.525-3.13 0.774-4.68 1.49-9.34 1.97-14.1 0.441-3.87 0.441-3.87 1.44-5.87 0.0699-1.5 0.0844-3 0.0625-4.5-0.00902-0.794-0.018-1.59-0.0273-2.41-0.0116-0.691-0.0232-1.38-0.0352-2.09v-2c-2.05-2.24-4.13-4.38-6.28-6.51-0.97-0.97-0.97-0.97-1.96-1.96-1.38-1.37-2.76-2.74-4.14-4.11-2.09-2.07-4.17-4.15-6.25-6.23-1.34-1.34-2.68-2.67-4.02-4.01-0.615-0.614-1.23-1.23-1.86-1.86-3.09-3.05-6.23-6-9.51-8.84-3.77-3.26-7.31-6.7-10.8-10.3-0.613-0.617-1.23-1.23-1.86-1.87-2.58-2.6-5.16-5.21-7.74-7.81-1.9-1.92-3.8-3.84-5.71-5.75-0.606-0.61-1.21-1.22-1.84-1.85-3.7-3.7-7.52-7.19-11.5-10.6-4.29-3.89-7.77-9.55-8.12-15.4 1.18-7.41 4.15-13.7 9.62-18.9 6.34-3.66 12.8-4.93 20-5.89 1.59-0.23 1.59-0.23 3.2-0.464 3.45-0.497 6.9-0.976 10.4-1.45 2.4-0.342 4.8-0.685 7.2-1.03 4.94-0.708 9.89-1.41 14.8-2.11 7.16-1.01 14.3-2.06 21.5-3.13 2.21-0.328 4.43-0.655 6.64-0.983 3.16-0.468 6.33-0.937 9.49-1.41 2.91-0.432 5.81-0.859 8.72-1.28 0.853-0.128 1.71-0.255 2.58-0.387 3.87-0.563 7.58-1.02 11.5-0.863 0.416-1.32 0.416-1.32 0.841-2.67 1.05-3.02 2.26-5.75 3.7-8.6 0.494-0.982 0.988-1.96 1.5-2.97 0.786-1.55 0.786-1.55 1.59-3.13 1.09-2.16 2.18-4.33 3.27-6.49 0.532-1.05 1.06-2.1 1.61-3.19 1.93-3.81 3.83-7.63 5.74-11.4 0.63-1.26 1.26-2.52 1.89-3.78 0.305-0.61 0.61-1.22 0.924-1.85 3.65-7.29 7.29-14.6 10.9-21.9 0.33-0.661 0.66-1.32 1-2 0.664-1.33 1.33-2.65 2-3.98 1.72-3.42 3.41-6.85 5.07-10.3 9.75-20.1 9.75-20.1 19.9-23.7 7.6-2.26 15 0.0895 21 5zm-15 67c-5.27 9.83-10.4 19.7-15.1 29.8-3.15 6.78-6.44 13.5-9.84 20.1-0.74 1.45-1.48 2.91-2.21 4.37-1.17 2.33-2.35 4.65-3.54 6.96-0.356 0.715-0.713 1.43-1.08 2.17-3.33 6.41-7.01 9.37-13.9 11.9-4.22 1.27-8.52 1.71-12.9 2.2-1 0.122-2.01 0.244-3.04 0.369-3.2 0.386-6.4 0.759-9.6 1.13-18.4 2.17-18.4 2.17-36.7 4.56-0.881 0.115-1.76 0.229-2.67 0.348-0.81 0.113-1.62 0.227-2.45 0.344-1.06 0.144-1.06 0.144-2.14 0.291-2.19 0.418-2.19 0.418-4.87 2.45 0.694 0.694 1.39 1.39 2.1 2.1 2.51 2.51 5.02 5.03 7.53 7.55 2.42 2.44 4.85 4.87 7.27 7.3 1.27 1.28 2.54 2.55 3.81 3.83 6.59 6.63 13.2 13.2 20.3 19.2 13.4 11.9 13.4 11.9 14.8 17.4 0.0848 1.52 0.143 3.04 0.188 4.56 0.0445 0.929 0.0889 1.86 0.135 2.81 0.275 10.6-1.5 20.5-3.45 30.9-0.313 1.71-0.625 3.42-0.936 5.13-0.614 3.38-1.23 6.75-1.84 10.1-0.149 0.822-0.299 1.64-0.453 2.49-0.307 1.69-0.616 3.37-0.926 5.06-0.45 2.46-0.888 4.93-1.32 7.39-0.137 0.738-0.274 1.48-0.416 2.24-0.671 3.88-0.888 7 0.209 10.8 5.2-1.53 9.7-3.82 14.4-6.38 1.69-0.903 3.39-1.81 5.08-2.71 0.89-0.475 1.78-0.95 2.7-1.44 4.79-2.54 9.6-5.04 14.4-7.54 5.51-2.87 11-5.74 16.5-8.66 0.784-0.418 1.57-0.835 2.38-1.27 1.45-0.775 2.9-1.55 4.35-2.33 4.32-2.31 7.79-3.84 12.7-3.99 0.785-0.0374 1.57-0.0748 2.38-0.113 9.3 1.3 17.8 6.8 25.9 11.2 2.46 1.33 4.92 2.66 7.38 3.99 0.631 0.341 1.26 0.682 1.91 1.03 7.32 3.95 14.7 7.78 22.1 11.6 0.641 0.333 1.28 0.665 1.94 1.01 1.8 0.936 3.61 1.87 5.41 2.8 1.03 0.533 2.06 1.07 3.13 1.61 2.05 1.21 2.05 1.21 3.33 1.14 0.0273-2.04 0.0465-4.08 0.0625-6.12 0.0174-1.71 0.0174-1.71 0.0352-3.45-0.114-4-0.289-7.81-2.1-11.4-1.12-4.09-1.82-8.26-2.56-12.4-0.208-1.13-0.208-1.13-0.42-2.28-0.551-3.09-1.02-5.93-0.982-9.07 0.129-2.24 0.129-2.24-0.996-4.07-1.5-3.09-1.47-5.98-1.66-9.39-0.112-1.89-0.112-1.89-0.227-3.83-0.049-0.964-0.098-1.93-0.148-2.92h-1c-0.336-7.47-0.106-13.2 3-20 0.33-0.99 0.66-1.98 1-3 1.31-0.703 2.65-1.37 4-2 1.72-1.44 1.72-1.44 3.36-3.15 0.635-0.638 1.27-1.28 1.92-1.93 1.01-1.03 1.01-1.03 2.05-2.09 0.708-0.713 1.42-1.43 2.14-2.16 2.26-2.28 4.52-4.57 6.78-6.86 2.24-2.27 4.49-4.54 6.73-6.81 1.4-1.41 2.79-2.82 4.18-4.23 3.87-3.91 7.84-7.6 12-11.2 2.4-2.16 4.44-4.55 6.47-7.04 1.36-1.62 2.82-3.09 4.32-4.58-12.2-2.13-24.5-3.97-36.8-5.5-1.04-0.129-2.08-0.258-3.15-0.391-5.28-0.653-10.6-1.29-15.9-1.92-1.99-0.243-3.98-0.486-5.97-0.73-0.908-0.103-1.82-0.206-2.75-0.312-7.89-0.982-16.2-2.7-21.4-9.15-2.58-4.22-4.8-8.58-7-13-0.432-0.839-0.864-1.68-1.31-2.54-2.15-4.2-4.16-8.45-6.12-12.7-2.98-6.48-6.16-12.8-9.57-19.1-3.64-6.74-6.83-13.7-10-20.7h-1zm64 166 1 2zm1 6 1 3zm3 18 1 2zm1 6 1 2zm4 23 1 2zm1 5 1 3z" fill="#FBFBFB"/>
<path transform="translate(1104)" d="m0 0c0.33 0.66 0.66 1.32 1 2 0.655-0.334 1.31-0.668 1.98-1.01 3.84-1.26 7.3-1.09 11.3-0.801 1.14 0.0746 1.14 0.0746 2.3 0.151 4.78 0.372 9.01 1.13 13.5 2.91 2.14 0.82 4.22 1.3 6.47 1.75 4.64 0.974 9.03 2.43 13.5 4 5.33 1.85 10.7 3.49 16.1 5 4.85 1.37 9.29 2.93 13.9 5 1.43 0.494 2.87 0.972 4.31 1.44 9.58 3.14 18.7 7.3 27.8 11.6 1.83 0.874 3.66 1.74 5.49 2.61 8.6 4.16 16.5 9.01 24.4 14.3 1.09 0.719 2.18 1.44 3.31 2.18 2.25 1.52 3.88 2.85 5.69 4.82 0.825 0.825 1.65 1.65 2.5 2.5 0.825 0.825 1.65 1.65 2.5 2.5 0.598 0.557 1.2 1.11 1.81 1.69 1.19 1.31 1.19 1.31 1.19 3.31 0.99 0.33 1.98 0.66 3 1 2.96 3.79 5.44 7.92 8 12 0.628 0.993 1.26 1.99 1.9 3.01 4.3 7.05 7.38 14.2 10.1 22 0.522 1.4 0.522 1.4 1.05 2.82 5.7 15.9 7.49 31.8 8.26 48.6 0.063 1.28 0.126 2.57 0.191 3.89 0.0479 1.15 0.0957 2.29 0.145 3.47 0.36 3.35 1.07 6.11 2.35 9.23 1.92 1.18 1.92 1.18 4 2 1.53 1.8 1.53 1.8 2.94 3.88 1.86 2.61 3.27 4.29 5.81 6.31 2.61 2.1 3.14 3.71 4.25 6.81 1.42 1.58 1.42 1.58 3 3 1.02 1.32 2.02 2.65 3 4l1.56 2c1.39 1.93 2.38 3.88 3.44 6 0.66 0.66 1.32 1.32 2 2 2.29 2.71 3.87 4.62 5 8 1.15 2.52 2.02 4.02 4 6 0.33 0.99 0.66 1.98 1 3 0.65 0.866 0.65 0.866 1.31 1.75 2.83 3.78 5.19 7.75 6.69 12.2 0.987 1.67 1.99 3.34 3 5 0.684 1.32 1.35 2.66 2 4 1.54 3.15 3.05 6.08 5 9 0.671 1.43 1.31 2.86 1.94 4.31 1.19 2.74 2.41 5.35 3.81 8 1.25 2.69 1.25 2.69 1.25 6.69 0.454 0.454 0.908 0.908 1.38 1.38 2.28 2.28 2.81 4.54 3.62 7.62v4c0.66 0.33 1.32 0.66 2 1-0.33 0.66-0.66 1.32-1 2h2l0.516 2.39c1.53 6.88 3.33 13.6 5.45 20.3 4.89 15.6 9.09 31.4 12.1 47.5 0.128 0.675 0.255 1.35 0.387 2.05 2.53 13.5 4.09 26.9 5.26 40.6 0.0665 2.15 0.0665 2.15 1.29 3.18 0.25 2.32 0.42 4.61 0.543 6.94 0.0414 0.78 0.0829 1.56 0.126 2.36 0.663 14.2 0.623 28.4 0.644 42.6 0.00145 0.785 0.00289 1.57 0.00438 2.38 0.0387 26.1-0.813 51.8-4.32 77.7-0.232 1.78-0.232 1.78-0.469 3.6-0.925 6.86-2.11 13.6-3.53 20.4-0.236 1.12-0.471 2.25-0.714 3.41-8.58 40.1-21.7 78-40.3 115-0.439 0.873-0.879 1.75-1.33 2.65-7.21 14.3-15.2 27.9-24.8 40.7-1.96 2.69-3.78 5.45-5.6 8.24-7.77 11.7-16.6 22.7-25.8 33.4-2.35 2.76-4.6 5.57-6.85 8.41-4.24 5.23-8.91 9.93-13.7 14.6-2.69 2.62-5.27 5.24-7.65 8.16-1.93 2.32-3.75 4.19-6.06 6.1-3.01 2.56-5.81 5.23-8.56 8.06-4.1 4.15-8.47 7.81-13 11.5-2.34 1.91-4.57 3.87-6.79 5.92-17.5 15.7-37.8 30.3-58.5 41.4-3.65 1.99-7.25 4.07-10.8 6.15-9.68 5.59-19.4 10.9-29.5 15.7-0.606 0.29-1.21 0.58-1.84 0.878-5.14 2.36-8.78 2.73-14.2 1.12-3.21-1.8-5.54-3.78-6.88-7.31-0.0412-0.557-0.0825-1.11-0.125-1.69h-2c0.269-6.05 0.909-10.2 5-15 4.16-3 8.51-5.34 13.1-7.56 27-13.4 52.4-29.5 75.9-48.4 1.38-1.1 2.77-2.2 4.15-3.29 7.32-5.84 14.4-11.9 21.2-18.3 2.27-2.11 4.58-4.16 6.93-6.18 3.13-2.71 6.03-5.57 8.93-8.53 1.73-1.69 3.53-3.23 5.38-4.79 9.86-8.52 18.3-18.8 26.4-28.9 0.931-1.14 1.86-2.28 2.8-3.42 7.52-9.22 14.5-18.7 21.2-28.6 0.457-0.672 0.915-1.34 1.39-2.04 26.7-39.5 47.6-84.2 58.1-131 0.62-2.65 1.36-5.25 2.13-7.85 1.55-5.48 2.41-11.1 3.29-16.7 0.577-3.7 1.24-7.33 2.11-11 1.22-5.34 1.62-10.7 2.04-16.2 0.154-1.97 0.311-3.94 0.473-5.91 0.0658-0.859 0.132-1.72 0.199-2.6 0.265-1.99 0.265-1.99 1.27-2.99 4.01-36.1 1.91-72.8 0-109h-1c-0.083-0.876-0.083-0.876-0.168-1.77-0.256-2.7-0.513-5.4-0.77-8.11-0.087-0.918-0.174-1.84-0.264-2.78-0.581-6.12-1.18-12.2-1.8-18.3h-1c-0.794-4.08-1.58-8.17-2.38-12.2-0.222-1.14-0.443-2.28-0.672-3.45-1.28-6.61-2.45-13.2-3.41-19.9-0.44-2.68-0.44-2.68-2.54-5.43-1.15-3.8-1.7-7.76-2.4-11.7-0.523-2.59-0.523-2.59-2.6-5.34-0.374-1.72-0.68-3.45-0.938-5.19-0.599-3.62-1.34-6.9-2.69-10.3-1.38-3.5-1.38-3.5-1.38-6.5-0.99-0.33-1.98-0.66-3-1-0.625-1.96-0.625-1.96-1-4.38-0.577-3.69-1.36-5.05-4-7.62-0.188-3.19-0.188-3.19 0-6-0.66-0.33-1.32-0.66-2-1-0.76-1.72-1.52-3.44-2.22-5.18-1.03-2.42-2.42-4.57-3.78-6.82-0.719-1.41-1.43-2.83-2.12-4.25-7.48-15.3-7.48-15.3-16.4-29.7-1.66-2.39-3.17-4.86-4.7-7.34-6.69-10.6-14.9-21.9-23.8-30.8-1.72-0.122-3.44-0.18-5.16-0.211-1.09-0.0261-2.18-0.0522-3.31-0.0791-1.19-0.028-2.37-0.0561-3.59-0.085-19.8-0.624-39-2.62-57.9-8.62-0.695-0.22-1.39-0.441-2.11-0.667-19.8-6.47-35.4-17.3-49.9-32.3-0.557-0.518-1.11-1.04-1.69-1.57-1.31-1.43-1.31-1.43-2.31-4.43-0.66-0.33-1.32-0.66-2-1-1.05-1.64-2.04-3.31-3-5-0.557-0.887-1.11-1.77-1.69-2.69-1.31-2.31-1.31-2.31-1.31-4.31h-2c-0.684-1.73-1.37-3.45-2.05-5.18-0.841-1.87-0.841-1.87-2.31-3.09-2.52-2.68-3.92-5.95-5.51-9.24-0.355-0.724-0.71-1.45-1.08-2.19-1.02-2.1-2.04-4.2-3.05-6.31-0.446-0.923-0.892-1.85-1.35-2.8-8.24-17.6-14.8-36-20.5-54.6-0.899-2.9-1.83-5.77-2.82-8.64-0.936-2.75-1.7-5.49-2.38-8.31-0.751-2.95-1.57-5.04-2.94-7.69-2.04-7.34-1.52-13.4 2-20 0.66-0.33 1.32-0.66 2-1 0.33-0.99 0.66-1.98 1-3zm30 35c0.479 7.31 2.36 13.2 5 20 0.839 2.35 1.67 4.71 2.5 7.06 3.92 10.9 8.49 21.5 13.5 31.9 0.411 0.865 0.822 1.73 1.25 2.62 5.89 12.1 12.4 23.8 20.8 34.4 0.535 0.688 1.07 1.38 1.62 2.09 3.09 3.81 6.17 6.32 10.4 8.91 0.673 0.512 1.35 1.02 2.04 1.55 21.7 16.4 49.6 19.4 76 20.4 0.388-14.2-1.65-27.2-5-41-0.401-1.77-0.797-3.54-1.19-5.31-0.402-1.83-0.402-1.83-0.812-3.69h-2l-0.438-3.5c-1.11-5.05-3.36-9.22-5.88-13.7-0.568-1.02-0.568-1.02-1.15-2.05-6.51-11.3-15.9-18.6-26.5-25.8-0.599-0.419-1.2-0.838-1.82-1.27-6.6-4.41-14-7.51-21.2-10.8-1.72-0.79-3.43-1.6-5.13-2.41-5.54-2.61-11.1-4.7-17-6.52-2.92-0.992-2.92-0.992-6.34-2.46-5.43-2.32-11-4.09-16.6-5.9-1.86-0.604-3.71-1.22-5.56-1.84-5.63-1.83-10.4-3.34-16.4-2.79zm130 96 1 3zm84 186 1 2zm5 17 1 2zm5 20 1 2zm1 5 1 2zm1 5 1 3zm8 58 1 4zm1 21v7h1v-7h-1z" fill="#FCFCFC"/>
<path transform="translate(1569 312)" d="m0 0c3.13 2.98 3.48 5.92 3.68 10.2 0.0308 8.69-1.38 16.6-4.05 24.9-0.67 2.12-1.28 4.26-1.88 6.4-11.7 41.3-28 89.6-67.4 112-20.4 11.3-43.2 16-66.4 17.4-0.724 0.0453-1.45 0.0906-2.19 0.137-8 0.443-14.1 0.502-20.8-4.14-2.55-2.63-3-3.31-3-7h-2c-0.939-36.2 2.2-74.9 28-103 0.713-0.804 1.43-1.61 2.16-2.44 19.9-21.2 50.2-33.9 77.1-43.3 2.65-0.928 5.29-1.87 7.93-2.82 8.99-3.2 18-6.2 27.2-8.94 0.853-0.266 1.71-0.533 2.58-0.807 6.36-1.85 13.3-2.74 19.1 1.26zm-113 75.3c-12.1 13.1-18.2 31.3-20.5 48.8-0.495 0.495-0.495 0.495-1 1-0.264 2.49-0.468 4.94-0.625 7.44-0.0516 0.694-0.103 1.39-0.156 2.1-0.344 3.85-0.344 3.85 0.781 7.46 25.6-2.25 52-7.85 69.5-28.2 8.75-11 15-24 20.5-36.8 0.293-0.684 0.587-1.37 0.889-2.07 5.75-13.6 9.91-27.8 14.1-41.9-24.8 0-66.6 25.4-83.5 42.2z" fill="#FAFAFA"/>
<path transform="translate(1526 757)" d="m0 0c3.4 2.63 4.69 4.14 5.93 8.27 0.306 5.86-0.304 10-4.35 14.5-3.26 2.91-7.11 4.66-11 6.54-0.953 0.463-1.91 0.927-2.89 1.4-40.7 19.5-92.1 42.9-138 30.5-0.998-0.267-2-0.534-3.02-0.809-23.5-7.1-44.5-22.6-61.8-39.6-1.05-1.02-1.05-1.02-2.12-2.05-0.647-0.65-1.29-1.3-1.96-1.97-0.576-0.574-1.15-1.15-1.75-1.74-1.64-2.25-1.99-4.12-2.36-6.86h-2c-0.595-4.76-0.278-7.11 2.69-10.9 0.543-0.659 1.09-1.32 1.64-2 2.55-3.15 4.58-6.6 6.67-10.1 0.33 0.66 0.66 1.32 1 2 0.753-0.606 1.51-1.21 2.28-1.84 15.8-12.5 32.9-23.1 52-29.5 1.06-0.358 1.06-0.358 2.13-0.724 50.7-16.3 115 16.2 157 44.8zm-188 4.27c3.61 8.27 12.4 12.8 20 17 1.11 0.652 2.23 1.3 3.38 1.98 23.9 13.7 46.9 13.5 73.1 6.46 9.32-2.61 18.5-5.64 27.7-8.69 0.663-0.22 1.33-0.441 2.01-0.668 8.12-2.59 8.12-2.59 15.9-6.08v-2c0.99 0.33 1.98 0.66 3 1 0.99-0.99 1.98-1.98 3-3-51-28-98.3-44.2-148-6zm191 3 1 2zm1 2 1 4z" fill="#FCFCFC"/>
<path transform="translate(1571 546)" d="m0 0c1.17 0.188 1.17 0.188 2.36 0.38 2.22 0.362 4.43 0.738 6.65 1.12 1.27 0.217 2.54 0.433 3.84 0.656 7.09 1.67 11.3 3.94 15.6 9.84 1.54 3.07 1.23 5.6 1 9-2.17 5.49-5.65 9.2-9.69 13.4-0.656 0.688-1.31 1.38-1.99 2.09-4.87 5.09-9.8 10.1-14.8 15.1-0.637 0.642-1.27 1.28-1.93 1.94-4.38 4.37-8.95 8.46-13.6 12.5-1.09 0.961-2.19 1.92-3.28 2.89-32.4 28.3-63.7 46.2-108 44.1-18.2-1.69-36-7.99-52.5-15.6-0.783-0.352-1.57-0.703-2.37-1.07-6.27-3-9.27-6.59-13.1-12.4-0.363-6.36 1.82-11.6 4.88-17.1 0.398-0.726 0.796-1.45 1.21-2.2 16.1-28.7 39.9-56.5 72.5-66.1 36.3-9.84 76.5-4.55 113 1.41zm-140 49.6c-9.81 11.3-9.81 11.3-16.7 24.4 8.02 4.01 16.3 6.07 25 8 0.989 0.229 1.98 0.459 3 0.695 21.7 4.37 43.5 1.01 62.1-11 9.04-6.04 17.6-12.6 25.9-19.7 1.17-0.981 2.33-1.96 3.5-2.94 8.11-6.85 15.9-13.7 22.5-22.1-3.1-0.485-6.21-0.962-9.31-1.44-0.862-0.135-1.72-0.269-2.61-0.408-12.5-1.9-24.8-2.37-37.4-2.39-2.84-0.00969-5.68-0.0408-8.52-0.0723-26.4-0.154-49.3 6.42-67.4 26.9z" fill="#FCFCFC"/>
<path transform="translate(277 737)" d="m0 0c12.5 9.46 12.5 9.46 14.7 14.3 0.66 0.33 1.32 0.66 2 1 2.59 1.3 2.96 2.32 4 5 0.404 4.56 0.13 9.06-2.21 13.1-1.82 2.12-3.77 4-5.79 5.93-0.848 0.904-1.7 1.81-2.57 2.74-21 22.3-51.7 41.2-82.9 42.5-20.6 0.455-39.9-4.02-59.5-10.2-0.882-0.278-1.76-0.556-2.67-0.842-21.1-6.75-41.8-15.5-61.5-25.7-0.757-0.385-1.51-0.769-2.29-1.17-4.13-2.2-7.03-4.27-9.58-8.33v-3c-0.66-0.33-1.32-0.66-2-1 2.46-11.2 2.46-11.2 7.94-15.1 1.2-0.707 2.41-1.4 3.62-2.08 0.998-0.577 0.998-0.577 2.02-1.17 1.42-0.817 2.84-1.63 4.27-2.43 2.05-1.16 4.09-2.34 6.12-3.53 61.6-35.5 125-56.2 186-9.95zm-163 30.3c0.33 0.66 0.66 1.32 1 2h5v2c9.2 3.64 18.5 6.96 27.9 10 0.669 0.217 1.34 0.433 2.03 0.656 29.6 9.51 56.3 14.8 85.1 0.318 8.49-4.39 17.1-9.16 24-16v-2c1.98-0.495 1.98-0.495 4-1-15.4-16.3-38.8-25.8-60.9-27.2-30.9 0.677-61.7 16.5-88.1 31.2z" fill="#FCFCFC"/>
<path transform="translate(96.8 540)" d="m0 0c1.13 9.06e-4 1.13 9.06e-4 2.27 0.00183 10.8 0.0236 21.4 0.175 32 2.19 0.65 0.118 1.3 0.237 1.97 0.358 11 2.08 20.3 6.2 30 11.6 0.964 0.522 1.93 1.04 2.92 1.58 23.3 13.6 39.9 38 52.1 61.4 0.368 0.681 0.736 1.36 1.12 2.06 1.24 2.72 1.03 4.85 0.822 7.81-0.0529 1.01-0.106 2.02-0.16 3.05-1.2 4.72-3.62 7.67-7.63 10.3-2.18 1.17-4.39 2.22-6.65 3.24-0.831 0.381-1.66 0.761-2.52 1.15-29.2 13-64.8 21.4-96 10.4-4.5-1.73-8.74-3.74-13-6-0.622-0.326-1.24-0.653-1.89-0.989-14.2-7.51-26.8-16.7-39.1-27l-3.04-2.52c-48.9-40.6-48.9-40.6-50.3-54.8 0.447-5.27 2.66-7.97 6.25-11.7 4.52-2.92 9.13-3.56 14.4-4.48 1.13-0.207 2.25-0.414 3.41-0.628 9.33-1.66 18.7-2.95 28.1-4.12 0.996-0.124 0.996-0.124 2.01-0.251 14.3-1.77 28.5-2.71 42.9-2.69zm-52.8 34.2c0.73 0.727 1.46 1.45 2.21 2.2 1.7 1.71 3.4 3.42 5.08 5.16 5.04 5.16 10.2 9.88 15.9 14.4 1.88 1.51 3.73 3.05 5.55 4.63 21.1 18.3 44 31.7 72.6 29.9 13.1-1.18 29.4-2.77 40.6-10.2-6.84-19-26.6-36.4-44.1-45.2-10.4-4.6-21.8-5.98-33-6.04-0.872-0.00688-1.74-0.0138-2.64-0.0208-2.82-0.0172-5.64-0.0235-8.47-0.026-0.958-0.00167-1.92-0.00334-2.9-0.00507-26.2-1.15-26.2-1.15-50.8 5.26zm174 48 1 2z" fill="#FDFDFD"/>
<path transform="translate(1464,88)" d="m0 0c6.3 7.67 6.59 18.6 7.69 28.1 0.226 1.98 0.226 1.98 1.31 3.9 0.283 2.38 0.519 4.74 0.719 7.12 0.0628 0.703 0.126 1.41 0.19 2.13 0.269 3.01 0.528 6.02 0.789 9.03 0.191 2.2 0.387 4.39 0.583 6.59 0.0573 0.683 0.115 1.37 0.174 2.07 0.302 3.65 0.302 3.65 1.55 7.05 0.11 1.48 0.159 2.97 0.177 4.45 0.0193 1.39 0.0193 1.39 0.0389 2.81 0.00739 1.01 0.0148 2.02 0.0224 3.06 0.00807 1.05 0.0161 2.1 0.0245 3.19 0.0139 2.25 0.0246 4.49 0.0324 6.74 0.0114 2.25 0.0316 4.51 0.0615 6.76 0.434 32.7-4.89 60.6-28 84.9-14.8 14.3-40.3 35.4-61.2 37.4-4.46-0.135-7.7-1.53-11.1-4.38-4-5.13-4-5.13-4-8h-2v-4l-2-1c-0.891-2.82-1.54-5.66-2.22-8.53-0.258-0.815-0.516-1.63-0.781-2.47l-2-1c-0.781-2.07-0.781-2.07-1.5-4.69-0.385-1.36-0.385-1.36-0.777-2.74-0.358-1.27-0.358-1.27-0.723-2.57-1.24-4-1.24-4-2.96-7.79-8.21-17.4-6.21-44.2-1.04-62.2 3.71-10.2 9.58-19.6 15-29h2c0.35-1.04 0.35-1.04 0.707-2.11 1.55-3.46 3.65-6.26 5.98-9.21 0.446-0.572 0.893-1.14 1.35-1.73 3.03-3.86 6.17-7.6 9.44-11.3 1.43-1.6 2.79-3.23 4.14-4.89 1.85-2.19 3.73-4.2 5.76-6.21 2-1.99 3.99-3.99 5.97-6 1.65-1.66 3.3-3.32 4.95-4.98 0.817-0.825 1.63-1.65 2.47-2.5 5.9-5.93 12-11.5 18.5-16.8 2.68-2.17 2.68-2.17 4.62-4.25 7.57-7.35 15.8-13.4 26.1-7.06zm-24.2 44.1c-0.883 0.886-0.883 0.886-1.78 1.79-0.606 0.605-1.21 1.21-1.84 1.83-1.29 1.29-2.58 2.58-3.86 3.87-1.95 1.95-3.9 3.9-5.86 5.85-1.25 1.25-2.5 2.51-3.76 3.76-0.578 0.576-1.16 1.15-1.75 1.75-7.73 7.77-14.3 16.3-20.9 25.1-1.13 1.49-1.13 1.49-2.28 3-5.16 6.93-9.08 13.7-11.9 21.8-0.5 1.41-1.02 2.81-1.55 4.21-2.02 5.51-2.66 10.3-2.53 16.1 0.00983 0.821 0.0197 1.64 0.0298 2.49 0.259 12.4 2.64 23.8 6.72 35.6 0.411 1.2 0.822 2.4 1.25 3.64 1.48 3.64 1.48 3.64 4.32 6.11 13.2-0.949 30.8-18.6 39-28 12.1-15.4 15.2-29.8 15.1-49.1-0.00187-1.36-0.00329-2.71-0.00429-4.07-0.00379-3.54-0.0136-7.09-0.0247-10.6-0.0103-3.63-0.0148-7.25-0.0198-10.9-0.0107-7.1-0.0277-14.2-0.0488-21.3h-1c-0.336-2.27-0.669-4.54-1-6.81-0.186-1.26-0.371-2.53-0.562-3.83-0.438-3.36-0.438-3.36-0.438-6.36-2.24 0-3.72 2.59-5.23 4.09zm9.23 39.9v17h1v-17h-1zm-94 65 1 2z" fill="#FBFBFB"/>
<path transform="translate(57.6 313)" d="m0 0c0.988 0.305 1.98 0.609 2.99 0.923 9.49 2.99 18.8 6.46 28.1 10 4.07 1.57 8.16 2.99 12.3 4.36 25.5 9.05 56.5 24.6 72.1 47.7 0.33 0.99 0.66 1.98 1 3 0.495 0.454 0.99 0.908 1.5 1.38 1.96 2.12 2.03 3.8 2.5 6.62 0.634 1.68 1.29 3.35 2 5h2c0.371 1.89 0.371 1.89 0.75 3.81 0.782 3.57 1.84 6.85 3.19 10.2 2.09 5.48 3.15 11 4.11 16.7 0.321 3.4 0.321 3.4 1.95 6.22 1.42 8.7 1.25 17.7 1.3 26.5 0.0116 1.59 0.0323 3.18 0.0615 4.76 0.0426 2.32 0.0588 4.65 0.0691 6.97 0.0263 1.06 0.0263 1.06 0.0531 2.14-0.0156 3.55-0.389 5.48-2.33 8.49-4.86 4.81-9.21 5.33-15.8 5.44-2.78-0.068-5.54-0.165-8.31-0.312-0.739-0.0372-1.48-0.0744-2.24-0.113-32.5-1.88-64.9-11.9-87.8-35.9-7.16-8.29-12.6-17.7-17.9-27.1-0.864-1.52-1.74-3.04-2.62-4.55-4.06-7.09-7.98-14.4-9.62-22.4-0.268-1.28-0.536-2.56-0.812-3.88-0.66-0.33-1.32-0.66-2-1l-1-7c-0.66-0.33-1.32-0.66-2-1l1-2c-0.66-0.33-1.32-0.66-2-1l1-2h-2c-0.544-3.06-1-5.89-1-9-0.66-0.33-1.32-0.66-2-1-2.18-5.06-3.34-9.51-4-15-0.33-0.66-0.66-1.32-1-2 0.33-0.66 0.66-1.32 1-2h-2c-1.03-3.08-1.55-5.99-2.06-9.19-0.177-1.09-0.353-2.17-0.535-3.29-0.199-1.25-0.199-1.25-0.402-2.52h-1c-0.623-9.73-0.623-9.73 1.69-14.4 9.26-10.3 17.9-7.32 29.9-3.56zm4.44 32c-1.36 1.13-1.36 1.13-1.06 4.06 0.0206 0.969 0.0412 1.94 0.0625 2.94h2c0.049 0.568 0.098 1.14 0.148 1.72 0.483 4.99 1.33 9.5 2.85 14.3h2c0.124 1.03 0.248 2.06 0.375 3.12 0.564 3.5 1.41 6.56 2.62 9.88h2c0.124 1.09 0.248 2.19 0.375 3.31 0.38 3.76 0.38 3.76 2.62 6.69 1.99 3.49 2.96 7.14 4 11h2c0.248 1.07 0.495 2.14 0.75 3.25 1.32 3.97 2.37 4.91 5.25 7.75 1.22 1.83 2.41 3.69 3.56 5.56 13.3 20 32.3 28.1 54.8 33.2 6.18 1.23 12.3 1.82 18.6 2.19-0.0606-0.66-0.121-1.32-0.184-2-0.275-3.02-0.546-6.04-0.816-9.06-0.0954-1.04-0.191-2.08-0.289-3.15-0.772-8.69-0.772-8.69-0.719-12.8 0.00951-3.65-0.761-6.58-1.99-10-0.66-0.33-1.32-0.66-2-1-0.227-1.24-0.454-2.48-0.688-3.75-3.24-15.7-14.9-27.5-27.6-36.3-20.6-13.5-45-24.4-68.7-31zm97 69 1 2zm5 22 1 2zm1 10 1 4z" fill="#FAFAFA"/>
<path transform="translate(152 86.8)" d="m0 0c2.58 1.78 4.6 4.04 6.81 6.25 1.28 0.953 2.57 1.89 3.88 2.81 3.76 2.74 6.55 5.86 9.52 9.43 1.94 2.12 4.1 3.39 6.61 4.76v2c0.99 0.33 1.98 0.66 3 1 1.51 1.57 1.51 1.57 3.12 3.56 3.33 3.96 6.98 7.27 11 10.6 1.95 1.89 2.74 3.45 3.92 5.86 1.57 1.53 1.57 1.53 3.38 2.88 3.28 2.69 5.35 5.52 7.62 9.12l4 4v2c1.49 0.495 1.49 0.495 3 1 0.33 0.99 0.66 1.98 1 3 0.66 0.33 1.32 0.66 2 1l3 6c0.66 0.33 1.32 0.66 2 1 0.889 1.62 1.71 3.27 2.5 4.94 1.81 3.84 1.81 3.84 4.5 7.06 0.696 1.54 1.34 3.11 1.94 4.69 1.15 2.98 2.32 5.9 3.62 8.81 8.79 21.4 6.67 46.1 2.79 68.4-0.319 1.87-0.578 3.74-0.829 5.62-0.174 0.813-0.348 1.63-0.527 2.46-0.66 0.33-1.32 0.66-2 1-0.948 2.34-1.8 4.67-2.62 7.06-2.18 6.05-4.61 11.9-7.44 17.7-0.316 0.667-0.632 1.33-0.958 2.02-2.61 5.21-5.41 8.37-11 10.2-16.2 2.06-37-14.2-49.3-23.6-5.4-4.27-10.6-8.75-15.7-13.4-0.722-0.648-1.44-1.3-2.19-1.96-17.7-16.8-27.3-41.9-28.1-66-0.0884-5.36-0.0724-10.7-0.0215-16.1 0.0314-3.33 0.041-6.66 0.0469-9.99 0.00916-2.16 0.0195-4.32 0.0312-6.47 0.00425-0.975 0.0085-1.95 0.0129-2.96 0.0855-8.38 0.286-16.9 2.13-25.1 1.08-4.91 1.53-9.82 2-14.8 0.718-7.44 1.97-14.4 4.06-21.6 0.289-1.28 0.577-2.56 0.875-3.88 1.8-5.01 4.59-8.06 8.94-11.1 4.79-1.6 8.57-0.961 13.4 0.688zm-25.2 26.2 1 3zm28 15c-2.39 2.39-2.31 3.23-2.56 6.5-0.343 4.31-0.343 4.31-1.44 6.5-0.516 4.76-0.765 9.54-1.06 14.3-0.0442 0.701-0.0884 1.4-0.134 2.13-2.41 32.7-2.41 32.7 4.2 64.6 0.588 1.55 0.588 1.55 1.19 3.12 0.268 0.619 0.536 1.24 0.812 1.88h2c0.0619 0.722 0.124 1.44 0.188 2.19 1.07 3.71 3.05 5.14 5.81 7.81 1.69 1.89 3.38 3.79 5.06 5.69 9.09 10 19.3 17.5 30.9 24.3 0.99 0.66 1.98 1.32 3 2 2.1 0.168 2.1 0.168 4-1 1.5-2.74 1.5-2.74 2.56-6.19 0.315-0.935 0.315-0.935 0.636-1.89 5.68-17.5 7.39-35.3 4.55-53.4-0.109-0.741-0.218-1.48-0.331-2.25-0.894-5.19-2.63-8.79-5.42-13.3-0.877-1.71-1.75-3.42-2.62-5.12-3.74-6.85-8.45-12.9-13.4-18.9-0.441-0.545-0.882-1.09-1.34-1.65-7.58-9.3-15.9-17.8-24.4-26.3-0.548-0.549-1.1-1.1-1.66-1.66-1.56-1.56-3.13-3.12-4.7-4.68-0.917-0.91-1.83-1.82-2.78-2.76-1.75-2.08-1.75-2.08-3.11-1.97zm-32 14v6h1v-6h-1zm-1 12v6h1v-6h-1zm0 46 1 4zm1 9 1 3zm1 6 1 3z" fill="#FBFBFB"/>
<path transform="translate(1226 535)" d="m0 0c3.56 2.07 6.4 4.56 9.34 7.39 1.14 1.08 2.28 2.16 3.43 3.24 0.567 0.538 1.13 1.08 1.72 1.63 1.55 1.46 3.12 2.88 4.71 4.3 4.63 4.12 9 8.23 13 13 1.55 1.79 3.12 3.49 4.77 5.19 13.6 14.1 25.3 29.6 34.2 47.1 0.364 0.686 0.728 1.37 1.1 2.08 0.544 1.04 0.544 1.04 1.1 2.11 0.33 0.628 0.661 1.26 1 1.9 1.16 2.79 1.31 5.47 1.51 8.46 0.316 2.74 1.05 5.18 1.84 7.82 6.77 26-3.39 54.7-16.2 77.2-6.7 11-6.7 11-12.4 13.4-8.61 1.63-15.1-1.94-22.4-6-1.06-0.553-2.11-1.11-3.2-1.68-24.1-12.9-45.3-33.1-54.1-59.6-0.437-1.58-0.848-3.17-1.25-4.76-0.351-0.66-0.701-1.32-1.06-2-6.17-13.2-1.87-33.8-0.562-47.9 0.0631-0.697 0.126-1.39 0.191-2.11 0.636-6.91 1.45-13.3 3.43-19.9 0.259-1.32 0.491-2.65 0.676-3.99 0.103-0.697 0.206-1.39 0.312-2.11 0.107-0.73 0.214-1.46 0.324-2.21 1.49-9.46 3.87-18.5 6.69-27.7 0.342-1.13 0.683-2.27 1.04-3.43 1.7-5.19 2.98-8.75 7.96-11.6 4.54-1.51 8.37-1.67 12.8 0.168zm2.16 40.8c-8.31 24.1-8.51 49.8-8 75 0.99-0.495 0.99-0.495 2-1-0.206 0.598-0.412 1.2-0.625 1.81-0.682 2.47-0.682 2.47 1.62 5.19 0.482 0.626 0.964 1.25 1.46 1.9 1.59 2.17 2.86 4.38 4.16 6.73 7.14 11.9 17.2 19.5 28.4 27.4 0.578 0.409 1.16 0.818 1.75 1.24 2.86 2.12 2.86 2.12 6.25 2.76 2.45-5.29 4.77-10.6 7-16 0.447-1.08 0.895-2.16 1.36-3.27 2.75-7.89 3.08-15.6 3.21-23.9 0.027-1.08 0.054-2.17 0.0818-3.29-0.124-26.1-23.4-48.8-40.2-66.8-0.608-0.657-1.22-1.31-1.84-1.99-0.853-0.91-0.853-0.91-1.72-1.84-0.506-0.54-1.01-1.08-1.53-1.64-1.33-1.4-1.33-1.4-3.34-2.28zm-36 66v5h1v-5h-1zm84 4 1 3z" fill="#FCFCFC"/>
<path transform="translate(379 389)" d="m0 0c4.05 3.56 5.24 7.21 5.8 12.5 0.229 7.75-1.43 14.8-3.51 22.2-0.831 2.98-1.63 5.96-2.42 8.94-7.61 28-16.9 58.3-36.3 80.7-0.682 0.793-1.36 1.59-2.07 2.4-16.9 18.2-42.1 25.8-65.9 29.6-0.794 0.133-1.59 0.266-2.41 0.402-5.06 0.71-10.2 0.792-15.3 0.91-0.726 0.0299-1.45 0.0598-2.2 0.0906-5.17 0.0552-8-1.02-12.1-4.4-1.64-1.68-1.64-1.68-2.81-3.31-0.597-0.799-0.597-0.799-1.21-1.61-3.05-6.45-2.13-14.5-2.11-21.4-0.00387-1.1-0.00773-2.21-0.0117-3.35 0.00129-1.05 0.00258-2.1 0.00391-3.18 0.00113-0.956 0.00226-1.91 0.00342-2.9 0.129-2.21 0.129-2.21 1.13-3.21 0.332-1.68 0.612-3.37 0.867-5.07 0.164-1.04 0.327-2.09 0.496-3.16 0.337-2.19 0.67-4.39 1-6.59 0.966-6.12 2.23-11.5 4.64-17.2 0.437-1.13 0.874-2.26 1.32-3.42 3.37-8.23 7.37-15.4 12.7-22.6 0.519-0.705 1.04-1.41 1.57-2.14 8.44-10.5 20.8-18.4 32.4-24.9 0.784-0.439 1.57-0.878 2.38-1.33 19.4-10.8 39.8-19.1 60.7-26.4 0.965-0.339 1.93-0.679 2.92-1.03 7.03-2.34 13.6-4.02 20.4-0.534zm-29.4 34.2c-30.6 12.1-30.6 12.1-58 30-1.3 1.04-1.3 1.04-2.63 2.11-12.4 10.4-18.4 24.3-21 40.1-0.359 1.79-0.359 1.79-1.36 2.79-0.264 2.65-0.469 5.28-0.625 7.94-0.0516 0.742-0.103 1.48-0.156 2.25-0.363 4.03-0.363 4.03 0.781 7.81 19.6-2.08 41.6-7.52 55-23 13.8-17.5 20.4-38 27-59 0.243-0.732 0.485-1.46 0.735-2.22 1.08-3.39 1.27-5.4 0.265-8.78zm-112 81v5h1v-5h-1zm0 21 1 3z" fill="#FCFCFC"/>
<path transform="translate(386 535)" d="m0 0c4.01 2.11 6.44 4.07 8.09 8.28 0.326 2.43 0.517 4.85 0.699 7.3 0.296 2.66 0.858 5.01 1.61 7.58 1.56 5.39 2.71 10.8 3.81 16.3 0.256 1.27 0.256 1.27 0.517 2.56 0.776 3.93 1.46 7.83 1.91 11.8 0.0656 3.27 0.0656 3.27 1.45 4.45 4.82 29.3 8.33 64.7-9.12 90.4-14.1 19.4-30.5 31.4-51.5 42.4-1.91 0.998-3.8 2.02-5.7 3.05-2.75 1.22-4.65 1.61-7.65 1.61-0.804 0.0193-1.61 0.0387-2.44 0.0586-4.89-0.946-7.85-3.59-10.9-7.42-0.725-1.12-1.43-2.25-2.13-3.39-0.381-0.612-0.762-1.22-1.16-1.85-8.18-13.4-13.1-27.8-17.4-42.8-0.33-0.99-0.66-1.98-1-3-5.88-23.4 1.79-45.6 13.6-65.7 7-11.3 15.3-21.7 24.4-31.3 1.13-1.29 2.26-2.58 3.38-3.88 13.5-15.4 13.5-15.4 20.8-21.5 1.88-1.63 3.6-3.35 5.33-5.14 6.29-6.39 13.8-13.3 23.4-9.72zm-14.9 41.3c-5.92 5.81-11.6 11.7-17 18-0.81 0.909-1.62 1.82-2.45 2.75-17.4 19.7-31.1 41.1-29.5 68.2 0.305 2.34 0.63 4.67 1 7 0.99-0.495 0.99-0.495 2-1l3 15h2c1.65 3.63 3.3 7.26 5 11 5.74-2.3 10.1-5.33 15-9 0.905-0.673 1.81-1.35 2.74-2.04 11.8-9.18 22.2-20.9 25.3-36 0.261-4.35 0.238-8.71 0.25-13.1 0.00395-1.28 0.0079-2.55 0.012-3.87-0.0618-10.4-0.941-20.5-2.28-30.8-0.139-1.06-0.278-2.13-0.421-3.22-0.131-0.936-0.262-1.87-0.397-2.84-0.162-2.25-0.162-2.25 0.838-4.25-0.387-2.58-0.831-4.66-2-7-0.174-1.35-0.317-2.71-0.438-4.06-0.186-1.3-0.371-2.6-0.562-3.94-0.66-0.33-1.32-0.66-2-1zm5 23 1 2zm1 7 1 3zm1 9v6h1v-6h-1zm-84 42v5h1v-5h-1zm30 15 1 3z" fill="#FBFBFB"/>
<path transform="translate(1242 390)" d="m0 0c1.11 0.387 2.22 0.774 3.37 1.17 1.77 0.606 1.77 0.606 3.57 1.22 27.8 9.72 55.6 21.7 79 40 0.835 0.645 1.67 1.29 2.53 1.95 9.73 8.01 19.8 20.3 21.5 33 0.309 0.619 0.619 1.24 0.938 1.88 1.61 3.22 2.28 6.63 3.06 10.1 0.25 1.11 0.5 2.21 0.758 3.35 2.59 11.7 3.51 22.8 3.59 34.7 0.0166 1.7 0.044 3.4 0.082 5.1 0.0549 2.47 0.0766 4.95 0.0913 7.42 0.0227 0.753 0.0453 1.51 0.0687 2.28-0.0159 3.98-0.523 6.51-3.01 9.56-3.98 3.95-6.31 4.81-12 4.89-0.7-0.00548-1.4-0.011-2.12-0.0166-0.74-0.00419-1.48-0.00838-2.24-0.0127-27.7-0.541-57.3-8.72-78.3-27.3-0.674-0.58-1.35-1.16-2.04-1.76-13.7-12.6-22.7-32-29-49.2v-3c-0.66-0.33-1.32-0.66-2-1-0.852-2.18-0.852-2.18-1.62-4.88-0.26-0.884-0.521-1.77-0.789-2.68-0.586-2.45-0.586-2.45-0.586-5.45-0.66-0.33-1.32-0.66-2-1-0.562-2.31-0.562-2.31-1-5-1.06-4.69-2.32-8.97-5-13-0.617-3.61-1.02-7.21-1.44-10.8-0.268-3.24-0.268-3.24-2.56-5.15-2.21-7.02-2.74-14.1-0.0938-21 6.01-10.9 17.2-8.63 27.2-5.34zm6.93 33.4c-0.883 7.42 0.531 13.6 2.88 20.6 0.269 0.806 0.538 1.61 0.815 2.44 1.19 4.22 1.19 4.22 4.31 6.93 0.638 2.3 1.02 4.61 1.44 6.97 0.278 1.01 0.278 1.01 0.562 2.03 0.66 0.33 1.32 0.66 2 1 0.689 2.33 1.35 4.66 2 7 0.66 0.99 1.32 1.98 2 3 0.717 1.17 1.43 2.34 2.14 3.51 13 21.4 28.1 31.4 52.4 37.5 4.14 0.969 8.25 1.53 12.5 1.98-1.02-23.4-2.7-43.5-20.6-60.6-5.69-4.92-11.8-8.79-18.4-12.4-1.13-0.631-1.13-0.631-2.28-1.27-20-12.4-20-12.4-41.7-18.7zm-30 3 1 2zm37 27 1 2zm76 52 1 4z" fill="#FBFBFB"/>
<path transform="translate(1236 241)" d="m0 0c2.48-0.00968 4.96-0.0408 7.44-0.0723 28.7-0.192 51 9.35 71.4 29.3 0.906 0.868 1.81 1.74 2.75 2.63 4.6 4.47 4.6 4.47 6.25 6.37v2c0.976 1.02 1.98 2.02 3 3 0.474 0.639 0.949 1.28 1.44 1.94 1.52 2.13 1.52 2.13 3.56 3.94 2.37 2.52 3.53 5 5 8.12 0.699 1.23 1.41 2.46 2.12 3.69 2.88 5.08 2.88 5.08 2.88 8.31 0.66 0.33 1.32 0.66 2 1-0.00614 1.35-0.0572 2.71-0.125 4.06-0.0232 0.754-0.0464 1.51-0.0703 2.29-1.49 4.9-4.7 8.3-8.98 11.1-2.49 1.32-5.01 2.51-7.58 3.66-0.924 0.425-1.85 0.85-2.8 1.29-8.62 3.88-17.3 7.14-26.4 9.65-1.23 0.339-2.46 0.678-3.73 1.03-17.3 3.94-37.6 4.43-54.3-2.03-0.618-0.231-1.24-0.461-1.87-0.699-25.4-9.61-47.1-27.4-67.1-45.3-0.519-0.462-1.04-0.924-1.57-1.4-15-13.4-15-13.4-21.4-20.6v-2c-0.99-0.33-1.98-0.66-3-1-0.48-5.76 0.4-10.3 4-15 4.8-3.91 9.46-5.18 15.4-6.44 1.4-0.307 1.4-0.307 2.82-0.62 8.78-1.86 17.6-3.3 26.5-4.69 0.68-0.107 1.36-0.214 2.06-0.324 13.6-2.11 26.7-3.13 40.4-3.17zm-45.2 33.2c1.31 3.93 3.81 5.46 7 7.88 0.623 0.478 1.25 0.955 1.89 1.45 1.34 1.03 2.69 2.05 4.03 3.08 2.06 1.58 4.09 3.2 6.12 4.83 19.7 15.7 40.9 28.9 67 26.8 10-1.43 19.6-4.23 29-8 0.99-0.33 1.98-0.66 3-1-5.59-16.3-23.2-28.3-37.8-35.7-7.08-2.84-14.1-3.57-21.6-3.56-0.881-0.00542-1.76-0.0108-2.67-0.0164-2.83-0.0114-5.65-0.00516-8.48 0.0047-1.44 7.4e-4 -1.44 7.4e-4 -2.91 0.0015-22.8-0.905-22.8-0.905-44.5 4.31z" fill="#F4F4F4"/>
<path transform="translate(265,642)" d="m0 0c2.31 2.89 3.95 5.74 5.5 9.09 0.469 1 0.938 2 1.42 3.03 0.501 1.07 1 2.15 1.52 3.26 16.2 34.1 36.4 65.4 61.2 94 1.49 1.73 2.96 3.48 4.43 5.22 7.49 8.87 15.2 17.2 24.1 24.7 1.88 1.66 3.64 3.39 5.4 5.18 3.66 3.71 7.54 7.1 11.5 10.5 1.01 0.884 2.02 1.77 3.02 2.65 8.36 7.31 17 14.1 25.9 20.8 1.93 1.45 3.85 2.9 5.78 4.35 22.3 16.7 46.7 31.7 72 43.4 3.52 1.93 5.27 3.37 7.31 6.81 0.75 3.31 0.75 3.31 1 6-0.66-0.33-1.32-0.66-2-1v-2c-0.571-0.283-1.14-0.566-1.73-0.858-2.22-1.11-4.41-2.26-6.61-3.42-0.817-0.431-1.63-0.862-2.48-1.31-1.7-0.898-3.4-1.8-5.1-2.7-4.34-2.29-8.7-4.53-13.1-6.72-14.5-7.72-28.5-16.4-41.6-26.3-2.41-1.8-2.41-1.8-5.21-3.33-0.723-0.461-1.45-0.923-2.19-1.4v-2c-0.737-0.263-1.47-0.526-2.23-0.797-2.79-1.21-4.68-2.52-7.02-4.45-0.861-0.708-1.72-1.42-2.61-2.14-0.488-0.406-0.976-0.811-1.48-1.23-1.9-1.58-3.82-3.14-5.74-4.7-6.96-5.68-13.8-11.4-20.5-17.5-2.45-2.2-4.95-4.3-7.48-6.4-4.62-3.84-9.04-7.62-12.8-12.3-1.35-1.73-1.35-1.73-3.75-4.04-2.67-2.67-5.02-5.53-7.44-8.44-1.66-1.67-3.33-3.34-5-5-8.31-8.82-16.2-17.8-22.7-28.1-1.24-1.92-1.24-1.92-2.8-3.35-2.6-2.66-4.18-5.97-6.02-9.18-1.35-2.13-2.71-3.63-4.5-5.38-0.688-2.19-0.688-2.19-1-4h-2c-1.66-2.35-1.66-2.35-3.62-5.62-0.346-0.577-0.692-1.15-1.05-1.75-1.12-1.87-2.22-3.75-3.33-5.63-0.572-0.961-0.572-0.961-1.16-1.94-1.12-1.89-2.24-3.79-3.34-5.68-0.35-0.591-0.7-1.18-1.06-1.79-1.59-2.77-2.44-4.33-2.44-7.58h-2c-8.5-17-8.5-17-9.4-18.8-1.36-2.72-2.73-5.44-4.12-8.14-0.446-0.865-0.892-1.73-1.35-2.62-0.389-0.744-0.779-1.49-1.18-2.25-1.04-2.41-1.61-4.58-1.95-7.18l1-2z"/>
<path transform="translate(1330,651)" d="m0 0c1.26 3.79 0.555 4.57-1.14 8.09-0.489 1.02-0.977 2.04-1.48 3.1-0.806 1.64-0.806 1.64-1.63 3.31-0.814 1.68-0.814 1.68-1.64 3.38-4.58 9.3-9.59 18.3-14.9 27.2-1.77 2.96-3.47 5.96-5.17 8.96h-2c-0.34 1.24-0.34 1.24-0.688 2.5-1.56 4.17-3.54 8-6.31 11.5h-2c-0.389 1.08-0.389 1.08-0.785 2.19-5.55 12.8-17.9 25.6-27.4 35.7-1.83 1.98-1.83 1.98-2.82 4.19-1.1 2.18-2.21 3.11-4.14 4.58-2.87 2.35-5.04 4.77-7.25 7.75-2.85 3.81-5.9 6.84-9.57 9.86-3.42 2.93-6.5 6.2-9.64 9.42-4.86 4.95-9.6 9.37-15.4 13.3-0.928 0.928-1.86 1.86-2.81 2.81-0.722 0.722-1.44 1.44-2.19 2.19h-2c-0.33 0.99-0.66 1.98-1 3-4.33 3-4.33 3-7 3-0.186 0.557-0.371 1.11-0.562 1.69-2.08 3.34-5.05 5.36-8.44 7.31h-2c-0.33 0.99-0.66 1.98-1 3-1.75 1.39-1.75 1.39-4 2.81-1.21 0.772-1.21 0.772-2.44 1.56-0.844 0.538-1.69 1.08-2.56 1.63-2.39 1.63-4.77 3.26-7.15 4.9-1.85 1.1-1.85 1.1-3.85 1.1v2c-1.82 1.2-3.66 2.39-5.53 3.52-2.63 1.58-5.2 3.25-7.78 4.92-4.4 2.8-8.87 5.37-13.5 7.83-2.52 1.36-5.03 2.75-7.52 4.16-22.3 12.6-22.3 12.6-26.7 12.6-0.66 1.65-1.32 3.3-2 5-0.75-1.62-0.75-1.62-1-4 3.76-7.22 10.1-10.2 17.1-13.6 27-13.4 52.4-29.5 75.9-48.4 1.38-1.1 2.77-2.2 4.15-3.29 7.32-5.84 14.4-11.9 21.2-18.3 2.27-2.11 4.58-4.16 6.93-6.18 3.13-2.71 6.03-5.57 8.93-8.53 1.73-1.69 3.53-3.23 5.38-4.79 9.86-8.52 18.3-18.8 26.4-28.9 0.931-1.14 1.86-2.28 2.8-3.42 7.52-9.22 14.5-18.7 21.2-28.6 0.457-0.672 0.915-1.34 1.39-2.04 12.9-19.1 23.6-39.3 33.6-60z"/>
<path transform="translate(1526 757)" d="m0 0c3.27 2.55 4.55 4.4 5.93 8.29 0.188 2.88 0.188 2.88 0 5-2-3.75-2-3.75-2-6-0.582-0.284-1.16-0.569-1.76-0.862-2.06-1.05-4.04-2.16-6.03-3.34-0.708-0.419-1.42-0.838-2.15-1.27-0.742-0.441-1.48-0.881-2.25-1.34-8.8-5.19-17.6-10.1-26.8-14.7-2.98-1.48-5.92-2.99-8.77-4.71-3.41-1.9-6.82-3.28-10.5-4.68-3.12-1.26-6.13-2.69-9.17-4.13-6.08-2.84-12.2-5-18.6-7-1.46-0.497-2.92-0.997-4.38-1.5-25-8.28-50.6-11.4-75.6-1.5-1.34 0.485-2.67 0.97-4.01 1.45-14.4 5.4-27.4 13.5-39.4 23-3.42 2.7-6.96 5.14-10.6 7.55-1.79 1.62-1.79 1.62-3 3 1.31-4.23 2.94-8.07 5-12 0.33 0.66 0.66 1.32 1 2 0.753-0.606 1.51-1.21 2.28-1.84 15.8-12.5 32.9-23.1 52-29.5 0.704-0.239 1.41-0.478 2.13-0.724 50.8-16.3 115 16.3 157 44.8z"/>
<path transform="translate(277 737)" d="m0 0c12.7 9.68 12.7 9.68 15.7 14.3v2c-3.96-1.74-7.74-4.15-11-7v-2c-0.721-0.254-1.44-0.508-2.18-0.77-3.02-1.32-5.27-2.91-7.88-4.92-12.5-9.29-26.8-17.3-41.9-21.3-0.949-0.351-1.9-0.701-2.88-1.06-18.4-5.53-41.1-4.77-59.1 2.06-1.41 0.486-2.83 0.965-4.25 1.44-0.737 0.247-1.47 0.495-2.23 0.75-2.99 0.966-6 1.85-9.02 2.75-5.39 1.65-10.4 3.64-15.5 6.06-1.92 0.878-3.83 1.75-5.75 2.62-0.882 0.405-1.76 0.81-2.67 1.23-1.73 0.772-3.48 1.51-5.25 2.2-2.42 0.913-2.42 0.913-4.83 2.45-2.5 1.5-2.5 1.5-4.85 2.43-2.64 1.07-5.04 2.31-7.52 3.7-3.9 2.16-7.81 4.27-11.7 6.35-5.88 3.11-11.7 6.3-17.3 9.8-2.05 1.23-2.05 1.23-4.24 2.23-2.59 1.43-2.94 3.26-3.81 6-1-3-1-3 0.523-6.42 2.31-3.76 5.27-5.82 9.1-7.89 0.992-0.563 0.992-0.563 2-1.14 1.41-0.797 2.82-1.59 4.24-2.37 2.05-1.14 4.08-2.31 6.1-3.49 61.6-35.6 125-56.2 186-9.96z"/>
<path transform="translate(1338,765)" d="m0 0c3.9 0.589 6.05 2.47 9.06 4.94 18 14 40.2 23 63.2 20.4 21.7-2.89 42.3-10.3 62.9-17.4 2.28-0.746 4.52-1.4 6.86-1.94v-2h2c0.33 1.65 0.66 3.3 1 5-1.68 0.718-3.35 1.44-5.03 2.15-1.7 0.732-3.4 1.48-5.1 2.22-1.29 0.547-2.58 1.09-3.88 1.62-0.81 0.336-1.62 0.673-2.45 1.02-29.9 12-63.7 22.2-95.2 9.95-2.56-1.19-4.93-2.53-7.36-3.97-0.646-0.38-1.29-0.761-1.96-1.15-2.21-1.31-4.41-2.64-6.6-3.97-0.716-0.432-1.43-0.864-2.17-1.31-5.15-3.21-5.15-3.21-6.27-6.57-1.66-0.674-3.33-1.34-5-2-2.31-1.94-2.31-1.94-4-4v-3z"/>
<path transform="translate(259,765)" d="m0 0c0.59 1.88 0.59 1.88 1 4-10.1 13.1-31.2 23.1-46.8 26.6-19.6 2.26-38.7-0.3-57.2-6.62-1.74-0.571-3.48-1.14-5.22-1.71-1.88-0.618-3.77-1.24-5.65-1.86-0.892-0.293-1.78-0.586-2.7-0.888-4.92-1.64-9.68-3.43-14.4-5.55-4.89-2.12-4.89-2.12-9.88-4-0.701-0.33-1.4-0.66-2.12-1-0.33-0.99-0.66-1.98-1-3 0.66-0.66 1.32-1.32 2-2h3v2c56.1 20.8 56.1 20.8 113 11 9.43-4.72 18.1-9.99 26-17z"/>
<path transform="translate(131,542)" d="m0 0c0.65 0.118 1.3 0.237 1.97 0.358 11 2.08 20.3 6.2 30 11.6 0.964 0.522 1.93 1.04 2.92 1.58 23.3 13.6 39.9 38 52.1 61.4 0.392 0.677 0.784 1.35 1.19 2.05 0.813 1.95 0.813 1.95-0.187 4.95-0.402-0.748-0.402-0.748-0.812-1.51-3.28-6.01-6.85-11.8-10.5-17.6-1.39-2.43-2.22-4.19-2.67-6.92h-2c-1.01-1.66-2.01-3.33-3-5-1.92-2.41-3.96-4.69-6-7-0.772-0.911-0.772-0.911-1.56-1.84-8.84-10.4-18.7-21.4-31.2-27.1-1.62-0.758-3.2-1.59-4.77-2.46-7.45-4.07-14.7-6.08-22.9-7.8-3.49-0.762-3.49-0.762-5.49-1.76-8.93-1.35-18-1.24-27.1-1.25-1.13-0.00151-1.13-0.00151-2.29-0.00305-50.1-1.58-50.1-1.58-94.4 13.9-0.42 0.463-0.84 0.926-1.27 1.4-0.66-0.33-1.32-0.66-2-1 3.04-4.94 5.47-7.19 11.2-8.62 0.999-0.224 0.999-0.224 2.02-0.452 0.703-0.166 1.41-0.332 2.13-0.503 7.68-1.76 15.4-2.96 23.2-4.05 0.739-0.105 1.48-0.21 2.24-0.319 28.9-4.1 60.2-7.54 89.2-2.06z"/>
<path transform="translate(1571 546)" d="m0 0c1.17 0.188 1.17 0.188 2.36 0.38 2.22 0.362 4.43 0.738 6.65 1.12 1.27 0.217 2.54 0.433 3.84 0.656 7.1 1.67 11.3 3.96 15.6 9.84-0.33 0.66-0.66 1.32-1 2-0.626-0.706-0.626-0.706-1.27-1.43-7.39-7.03-16.2-7.34-25.9-8.3-1.81-0.278-1.81-0.278-2.81-1.28-2.41-0.363-4.81-0.669-7.23-0.938-0.74-0.085-1.48-0.17-2.24-0.258-1.58-0.18-3.16-0.358-4.74-0.534-2.36-0.264-4.72-0.536-7.08-0.81-39.5-4.51-86.2-8.28-119 17.9-3.32 2.72-6.57 5.53-9.8 8.36-1.58 1.36-3.19 2.68-4.81 3.99-2.69 2.31-4.02 4.26-5.72 7.33-0.98 1.02-1.98 2.02-3 3-0.66 0.99-1.32 1.98-2 3h-2c-0.262 0.726-0.523 1.45-0.793 2.2-1.23 2.86-2.69 5.1-4.52 7.61-3.08 4.3-5.93 8.67-8.69 13.2-0.33-0.66-0.66-1.32-1-2 1.36-2.53 2.77-4.9 4.31-7.31 0.455-0.716 0.91-1.43 1.38-2.17 16.6-25.7 39.5-50.5 70.4-57.8 36-7.72 73.5-3.58 109 2.29z"/>
<path transform="translate(45,576)" d="m0 0c3.61 2 6.3 4.12 9.12 7.12 4.1 4.2 8.43 7.91 13 11.6 1.89 1.52 3.76 3.08 5.59 4.67 21.1 18.3 44 31.6 72.6 29.9 13.1-1.18 26.2-3.76 38.6-8.24v4c-7.6 2.61-15.2 5.07-23 7-0.79 0.208-1.58 0.415-2.39 0.629-20.5 4.63-41.8 1.53-59.6-9.63-0.574-0.353-1.15-0.706-1.74-1.07-9.38-5.81-17.9-12.5-26.3-19.6-3.3-2.78-6.71-5.37-10.2-7.89-2.42-1.94-4.24-4.2-6.17-6.61-2.41-2.73-5.21-4.95-8.05-7.22-1.54-1.58-1.54-1.58-1.54-4.58z"/>
<path transform="translate(1551,576)" d="m0 0 4 2c-4.61 5.55-9.47 10.4-15 15-1.04 0.886-2.07 1.77-3.11 2.66-1.09 0.926-2.18 1.85-3.27 2.78-0.786 0.675-0.786 0.675-1.59 1.36-3.81 3.2-3.81 3.2-6.04 3.2-0.195 0.559-0.389 1.12-0.59 1.7-2 3.26-4.87 5.06-7.97 7.18-0.634 0.441-1.27 0.881-1.92 1.33-1.26 0.876-2.53 1.75-3.8 2.62-1.42 0.97-2.82 1.96-4.22 2.95-5.84 4.07-12.1 7.18-18.5 10.2-1.18 0.577-2.35 1.15-3.56 1.75-16.2 5.89-35 4.29-51.4 0.25-0.942-0.228-1.88-0.456-2.86-0.691-6.11-1.66-11.6-4.31-17.1-7.31 0.33-0.99 0.66-1.98 1-3 1.13 0.472 1.13 0.472 2.29 0.953 23.7 9.2 50.3 12.1 74.3 2.64 14.1-6.57 26.7-16.5 38.4-26.6 1.18-0.992 2.36-1.98 3.54-2.98 9.08-7.64 9.08-7.64 17.5-16v-2z"/>
<path transform="translate(800 530)" d="m0 0c1.18-0.0561 1.18-0.0561 2.38-0.113 9.3 1.3 17.8 6.8 25.9 11.2 2.46 1.34 4.92 2.67 7.38 4 0.631 0.342 1.26 0.683 1.91 1.03 4.68 2.52 9.4 4.96 14.1 7.36 0.669 0.34 1.34 0.681 2.03 1.03 2.62 1.33 5.23 2.66 7.86 3.97 1.81 0.903 3.61 1.82 5.41 2.73 1.03 0.517 2.06 1.03 3.13 1.57 2.33 1.48 2.33 1.48 3.33 4.48-5.99-1.13-10.6-3.22-15.9-6.27-2.56-1.43-5.13-2.75-7.76-4.05-5.57-2.76-11-5.74-16.5-8.74-18.5-11.3-18.5-11.3-39.1-13.3-5.24 1.92-9.9 4.64-14.8 7.38-2.43 1.33-4.87 2.63-7.31 3.94-0.633 0.338-1.27 0.677-1.92 1.03-5.45 2.9-11 5.64-16.5 8.38-3.03 1.53-6 3.13-8.96 4.78-10.7 5.88-10.7 5.88-16.3 7.88-0.66-0.33-1.32-0.66-2-1 0.33-0.99 0.66-1.98 1-3 1.98-0.715 3.99-1.37 6-2 2.87-1.35 5.65-2.87 8.44-4.38 1.69-0.903 3.39-1.81 5.08-2.71 1.34-0.713 1.34-0.713 2.7-1.44 4.79-2.54 9.6-5.04 14.4-7.54 5.51-2.87 11-5.74 16.5-8.66 0.784-0.418 1.57-0.835 2.38-1.27 1.45-0.775 2.9-1.55 4.35-2.33 4.32-2.31 7.79-3.84 12.7-3.99z"/>
<path transform="translate(1226 535)" d="m0 0c3.58 2.05 6.41 4.54 9.36 7.38 1.14 1.08 2.28 2.16 3.43 3.24 0.567 0.538 1.13 1.08 1.72 1.63 1.55 1.46 3.12 2.88 4.71 4.3 4.63 4.12 9 8.23 13 13 1.55 1.79 3.12 3.49 4.77 5.19 13.1 13.6 24.7 28.5 33.3 45.3 0.68 1.33 1.38 2.64 2.09 3.95 0.377 0.707 0.754 1.41 1.14 2.14 0.523 0.963 0.523 0.963 1.06 1.95 0.643 1.79 0.643 1.79-0.357 4.79-0.33-0.99-0.66-1.98-1-3h-2c-0.254-0.675-0.508-1.35-0.77-2.05-0.344-0.892-0.688-1.78-1.04-2.7-0.336-0.882-0.673-1.76-1.02-2.67-1.14-2.51-2.5-4.4-4.17-6.58-0.688-2.75-0.688-2.75-1-5h-2c-1.04-1.64-2.03-3.31-3-5-1.16-1.52-2.35-3.02-3.56-4.5-2.38-2.93-4.73-5.86-7.01-8.86-0.435-0.572-0.87-1.14-1.32-1.73-0.844-1.11-1.68-2.23-2.52-3.35-2.63-3.47-5.48-6.51-8.59-9.55-0.763-0.949-1.53-1.9-2.31-2.88-2.01-2.47-4.2-4.5-6.62-6.56-3.19-2.71-5.83-5.56-8.48-8.79-2.44-2.72-5.23-4.98-8.05-7.29-0.508-0.489-1.02-0.977-1.54-1.48v-2c-0.743-0.268-1.48-0.536-2.25-0.812-2.75-1.19-2.75-1.19-4.5-2.75-3.5-2.24-7.14-2.44-11.2-2.44-3.96 1.01-4.69 1.54-7 5h-2c0.954-3.82 1.94-4.96 5.19-7.31 4.7-2.4 8.73-2.56 13.6-0.508z"/>
<path transform="translate(1239 389)" d="m0 0c2.19 0.726 4.38 1.47 6.57 2.23 1.18 0.404 2.36 0.808 3.57 1.22 27.8 9.72 55.6 21.7 79 40 0.835 0.645 1.67 1.29 2.53 1.95 6.51 5.36 12.6 12 15.5 20-4.88-4.62-4.88-4.62-6-8-1.48-0.495-1.48-0.495-3-1-1.65-1.71-1.65-1.71-3.38-3.81-5.56-6.52-12.9-12.3-20.6-16.2v-2c-0.603-0.182-1.21-0.364-1.83-0.551-4.31-1.36-7.62-2.61-11.2-5.45-1.65-0.725-3.3-1.45-4.96-2.12-2.3-0.987-4.5-2.11-6.72-3.25-31.1-16.6-31.1-16.6-64.3-21.6-2.9 1.38-5.45 3.05-8 5 4.48-9.92 13.8-9.13 22.9-6.42z"/>
<path transform="translate(862,364)" d="m0 0c2.88 3.67 2.88 3.67 3.72 6.06 1.16 2.21 1.16 2.21 3.9 2.79 1.14 0.167 2.28 0.334 3.46 0.505 0.653 0.1 1.31 0.2 1.98 0.304 1.46 0.221 2.93 0.434 4.39 0.639 2.41 0.338 4.82 0.698 7.22 1.06 9.64 1.45 19.3 2.78 29 4.12 6.19 0.858 12.4 1.73 18.6 2.6 4.67 0.658 9.34 1.3 14 1.92 2.97 0.402 5.95 0.819 8.92 1.24 1.39 0.194 2.78 0.381 4.18 0.562 8.43 1.1 15.4 2.78 22.7 7.2v3c-0.583-0.341-1.17-0.681-1.77-1.03-6.71-3.67-12.7-4.99-20.2-5.72-2.04-0.221-4.08-0.445-6.12-0.672-0.889-0.0886-1.78-0.177-2.7-0.269-2.18-0.31-2.18-0.31-4.18-1.31-1.83-0.203-3.66-0.365-5.5-0.5-5.28-0.389-5.28-0.389-7.5-1.5-1.4-0.195-2.81-0.343-4.22-0.465-0.851-0.078-1.7-0.156-2.58-0.236-1.77-0.155-3.54-0.308-5.31-0.461-4.25-0.392-8.39-0.89-12.6-1.78-7.56-1.6-15.3-2.35-22.9-3.23-20.2-2.34-20.2-2.34-23.8-6.46-1.75-2.87-2.58-5-2.58-8.37z"/>
<path transform="translate(379 389)" d="m0 0c2.34 2.06 3.53 3.35 4.56 6.25-0.928-0.639-1.86-1.28-2.81-1.94-5.83-3.77-11-3.61-17.7-2.25-4.05 0.973-7.69 2.49-11.5 4.19-1.43 0.494-2.87 0.973-4.31 1.44-9.67 3.15-19 7.32-28.3 11.5-1.64 0.732-3.28 1.46-4.92 2.17-8.06 3.56-15.8 7.66-23.5 11.9-0.74 0.409-1.48 0.817-2.24 1.24-5.38 3.18-10.2 7.17-15 11.1-4.54 3.66-4.54 3.66-6.75 3.66-0.66 1.32-1.32 2.64-2 4h-3c3.01-4.09 6.44-7.22 10.4-10.3 0.623-0.482 1.25-0.964 1.89-1.46 5.96-4.55 12.1-8.57 18.7-12.2 0.784-0.439 1.57-0.878 2.38-1.33 19.4-10.8 39.8-19.1 60.7-26.4 0.965-0.339 1.93-0.679 2.92-1.03 7.03-2.34 13.6-4.02 20.4-0.534z"/>
<path transform="translate(734,373)" d="m0 0v2c-15.2 2.61-30.5 5.02-45.8 7.18-3.14 0.445-6.28 0.897-9.42 1.35-10 1.44-20.1 2.8-30.2 3.84-4.54 0.471-8.97 1.14-13.4 2.13-1.61 0.354-3.22 0.655-4.84 0.922-5.45 0.918-9.04 2.14-13.4 5.57-0.66-0.33-1.32-0.66-2-1 9.75-9.75 26.1-9.51 39.1-11.4 2.15-0.309 4.29-0.619 6.44-0.929 4.48-0.645 8.96-1.29 13.4-1.92 5.74-0.817 11.5-1.64 17.2-2.47 4.42-0.639 8.85-1.27 13.3-1.91 2.12-0.303 4.23-0.608 6.35-0.913 2.95-0.425 5.91-0.845 8.86-1.26 0.872-0.126 1.74-0.252 2.64-0.382 3.92-0.551 7.69-1.02 11.7-0.855z"/>
<path transform="translate(1223,654)" d="m0 0c1.96 2.94 3.47 5.9 5.06 9.06 8.19 15.4 22.3 25.1 36.9 33.9 0.268-0.846 0.536-1.69 0.812-2.56 1.24-3.58 2.66-6.98 4.19-10.4 1.31 3.93 0.332 5.35-1.25 9.12-0.438 1.08-0.877 2.15-1.33 3.26-1.42 2.62-1.42 2.62-4.42 3.62-12.4-5.09-23.7-14.6-32-25-0.498-0.463-0.995-0.926-1.51-1.4-3.9-4.18-6.07-11.2-7.49-16.6 0.33-0.99 0.66-1.98 1-3z"/>
<path transform="translate(1271,483)" d="m0 0c2.72 2.61 4.96 5.24 7.12 8.31 11.4 14.7 32.2 20.8 49.9 23.3 0.967 0.12 1.93 0.24 2.93 0.363 0.495 1.98 0.495 1.98 1 4-3.17-0.422-6.33-0.866-9.5-1.31-0.887-0.118-1.77-0.236-2.69-0.357-5.66-0.812-10.5-2.13-15.8-4.33l-3.44-1.38c-11.9-5.43-23.5-12.5-29.6-24.6v-4z"/>
<path transform="translate(386 535)" d="m0 0c3.94 2.07 6.36 4.17 8.09 8.28-0.33 0.66-0.66 1.32-1 2-0.248-0.619-0.495-1.24-0.75-1.88-1.51-2.56-2.54-2.99-5.25-4.12-6.04-1.41-11.2-1.14-17 1-1.2 1.82-1.2 1.82-2 4-1.89 1.89-3.85 3.39-6 5h-2c-0.268 0.639-0.536 1.28-0.812 1.94-1.19 2.06-1.19 2.06-4.19 3.06-0.691 1.32-1.36 2.66-2 4-1.48 1.42-1.48 1.42-3.19 2.75-3.49 2.85-6.3 6.02-9.14 9.52-1.78 1.84-3.41 2.61-5.68 3.73-1.28 2.54-1.28 2.54-2 5h-2c-0.248 0.557-0.495 1.11-0.75 1.69-1.48 2.74-3.18 4.99-5.25 7.31h-2c1.73-4.19 4.63-7.31 7.56-10.7 0.535-0.621 1.07-1.24 1.62-1.88 3.8-4.37 7.78-8.51 11.9-12.5 1.61-1.61 3.04-3.23 4.45-5.01 2.58-3.05 5.36-5.51 8.4-8.09 1.95-1.71 3.74-3.49 5.54-5.35 6.29-6.39 13.8-13.3 23.4-9.72z"/>
<path transform="translate(330,480)" d="m0 0 1 2c-1.36 2.82-1.36 2.82-3.31 6.12-0.636 1.1-1.27 2.19-1.93 3.32-0.581 0.843-1.16 1.69-1.76 2.55h-2c-0.268 0.639-0.536 1.28-0.812 1.94-1.19 2.06-1.19 2.06-4.19 3.06-0.447 0.928-0.447 0.928-0.902 1.88-3.2 6.19-13.7 9.79-20.1 12.1-16.4 5.19-16.4 5.19-24.9 5.06-0.781-0.00902-1.56-0.018-2.37-0.0273-0.58-0.0116-1.16-0.0232-1.76-0.0352-0.33-1.32-0.66-2.64-1-4 0.33 0.66 0.66 1.32 1 2 3-0.66 6-1.33 9-2 0.748-0.167 1.5-0.333 2.27-0.505 22.4-5.11 39.2-13.7 51.7-33.5z"/>
<path transform="translate(375,657)" d="m0 0c1.5 4.49-0.557 7.06-2.53 11.2-1.89 3.6-3.89 6.67-6.47 9.81h-2c-0.268 0.598-0.536 1.2-0.812 1.81-1.19 2.19-2.28 3.6-4.19 5.19h-2c-0.33 0.99-0.66 1.98-1 3-2.21 1.82-2.21 1.82-4.94 3.69-0.896 0.623-1.79 1.25-2.71 1.89-2.35 1.43-2.35 1.43-4.35 1.43-0.33 0.99-0.66 1.98-1 3-2.34 1.73-4.04 2-6.94 2.31-4.53-1.94-5.42-5.19-7.38-9.55-0.688-2.76-0.688-2.76 0.188-5.12 0.371-0.543 0.743-1.09 1.12-1.64 0.838 1.79 1.67 3.58 2.5 5.38 0.464 0.998 0.928 2 1.41 3.02 1.09 2.6 1.09 2.6 1.09 4.6 16.9-10.3 31.8-21.4 40-40z"/>
<path transform="translate(89,415)" d="m0 0c2.59 2.39 4.7 4.9 6.75 7.75 16.6 22.1 43.4 27.2 69.2 31.2v2c-13.1-0.525-24.8-2.87-37.3-6.88-0.741-0.232-1.48-0.465-2.25-0.704-12.5-4.17-22.5-12.9-31.1-22.7-0.8-0.904-0.8-0.904-1.62-1.83-2.8-3.3-3.76-4.45-3.76-8.92z"/>
<path transform="translate(92,326)" d="m0 0c6.65 1.27 12.4 3.21 18.5 6.06 0.864 0.396 1.73 0.793 2.62 1.2 21.4 9.95 40.4 21.6 56.9 38.7-0.495 0.99-0.495 0.99-1 2-6.05-4.74-6.05-4.74-8-7v-2h-2v-2c-0.53-0.24-1.06-0.48-1.61-0.727-3.08-1.64-5.87-3.63-8.71-5.65-4.45-3.12-8.89-6.06-13.7-8.62v-2c-1.2-0.351-2.39-0.701-3.62-1.06-7.58-2.51-14.6-6.43-21.7-10.1-4.69-2.43-9.48-4.2-14.5-5.87-2.22-0.93-2.22-0.93-3.22-2.93z"/>
<path transform="translate(1503,425)" d="m0 0c0 3 0 3-2.19 5.38-0.928 0.866-1.86 1.73-2.81 2.62-0.784 0.825-1.57 1.65-2.38 2.5-11.5 11-27.3 16-42.7 18.1-3.08 0.394-3.08 0.394-6.65 1.56-4.15 1.12-7.98 1.05-12.2 0.875-0.33-1.32-0.66-2.64-1-4 0.33 0.66 0.66 1.32 1 2 27.1-4.28 49.2-8.97 69-29z"/>
<path transform="translate(1508,327)" d="m0 0c-4.86 2.24-9.73 4.46-14.7 6.54-9.84 4.14-19.1 9-28.4 14.3-1.3 0.746-2.6 1.49-3.91 2.23-9.13 5.16-16.8 11.3-24.4 18.5-2.15 1.98-4.29 3.76-6.66 5.45 9.06-21.5 44.1-35.5 64-44 11.1-4.46 11.1-4.46 14-3z"/>
<path transform="translate(682,429)" d="m0 0c4.18 1.63 6.94 4.71 10 7.86 0.862 0.87 0.862 0.87 1.74 1.76 1.84 1.85 3.66 3.71 5.49 5.57 9.71 9.94 9.71 9.94 20 19.3 3.2 2.76 6.2 5.73 9.2 8.71 0.623 0.603 1.25 1.21 1.89 1.83 0.592 0.587 1.18 1.17 1.79 1.78 0.53 0.521 1.06 1.04 1.61 1.58 1.45 1.85 1.86 3.33 2.27 5.63-3.19-2.32-5.77-4.81-8.31-7.81-3.1-3.66-6.47-6.71-10.2-9.74-0.496-0.477-0.993-0.954-1.5-1.45v-2c-0.681-0.165-1.36-0.33-2.06-0.5-3.64-1.86-5.47-4.25-8.05-7.36-2.4-2.73-5.06-4.99-7.82-7.34-3.52-3.07-7.01-6.26-10.1-9.8v-2c-0.619-0.248-1.24-0.495-1.88-0.75-2.48-1.46-3.08-2.63-4.12-5.25z"/>
<path transform="translate(322,588)" d="m0 0 1 2c-0.95 1.51-1.91 3-2.88 4.5-0.534 0.835-1.07 1.67-1.62 2.53-0.498 0.65-0.995 1.3-1.51 1.97h-2c-0.248 0.742-0.495 1.49-0.75 2.25-1.34 2.95-2.86 4.6-5.25 6.75 1.57-4.7 4.17-8.3 7.06-12.2 0.46-0.637 0.919-1.27 1.39-1.93 3.35-4.63 3.35-4.63 4.54-5.82z"/>
<path transform="translate(260,630)" d="m0 0c2.32 2.85 3.92 5.48 5 9-0.33 0.99-0.66 1.98-1 3-0.33-0.99-0.66-1.98-1-3h-2c-2.09-4.43-2.09-4.43-1.62-7.31 0.206-0.557 0.413-1.11 0.625-1.69z"/>
<path transform="translate(916,430)" d="m0 0c0.33 0.99 0.66 1.98 1 3-2.85 2.93-5.65 5.64-9 8l-2-1c3.3-3.3 6.6-6.6 10-10z"/>
<path transform="translate(970,375)" d="m0 0c1.56 1.56 1.56 1.56 3 4-0.312 3.75-0.312 3.75-1 7-2.68-4.02-2.16-6.24-2-11z"/>
<path transform="translate(1404,448)" d="m0 0h1v21h-1v-21z" fill="#FDFDFD"/>
<path transform="translate(1361,509)" d="m0 0h1v16h-1v-16z"/>
<path transform="translate(1296,155)" d="m0 0h1v11h-1v-11z"/>
<path transform="translate(232,508)" d="m0 0h1v10h-1v-10z"/>
<path transform="translate(403,586)" d="m0 0h1v6h-1v-6z"/>
<path transform="translate(1395,401)" d="m0 0h1v6h-1v-6z"/>
<path transform="translate(1304,639)" d="m0 0h1v5h-1v-5z"/>
<path transform="translate(1303,634)" d="m0 0h1v5h-1v-5z"/>
<path transform="translate(924,594)" d="m0 0h1v5h-1v-5z"/>
<path transform="translate(920,571)" d="m0 0h1v5h-1v-5z"/>
<path transform="translate(919,564)" d="m0 0h1v5h-1v-5z"/>
<path transform="translate(237,547)" d="m0 0h1v5h-1v-5z"/>
<path transform="translate(234,527)" d="m0 0h1v5h-1v-5z"/>
<path transform="translate(911,518)" d="m0 0h1v5h-1v-5z"/>
<path transform="translate(1282,727)" d="m0 0c0.33 0.99 0.66 1.98 1 3-0.66-0.33-1.32-0.66-2-1 0.33-0.66 0.66-1.32 1-2z"/>
<path transform="translate(323,661)" d="m0 0 1 4z"/>
<path transform="translate(923,588)" d="m0 0 1 4z"/>
<path transform="translate(241,568)" d="m0 0 1 4z"/>
<path transform="translate(399,566)" d="m0 0 1 4z"/>
<path transform="translate(210,564)" d="m0 0 1 4z" fill="#FDFDFD"/>
<path transform="translate(396,553)" d="m0 0 1 4z"/>
<path transform="translate(238,553)" d="m0 0 1 4z"/>
<path transform="translate(916,547)" d="m0 0 1 4z"/>
<path transform="translate(915,541)" d="m0 0 1 4z"/>
<path transform="translate(236,541)" d="m0 0 1 4z"/>
<path transform="translate(235,535)" d="m0 0 1 4z"/>
<path transform="translate(912,524)" d="m0 0 1 4z"/>
<path transform="translate(910,512)" d="m0 0 1 4z"/>
<path transform="translate(1360,497)" d="m0 0 1 4z"/>
<path transform="translate(231,495)" d="m0 0 1 4z"/>
<path transform="translate(230,475)" d="m0 0 1 4z"/>
<path transform="translate(191,424)" d="m0 0 1 4z"/>
<path transform="translate(1394,392)" d="m0 0 1 4z"/>
<path transform="translate(150,189)" d="m0 0 1 4z"/>
<path transform="translate(1476,148)" d="m0 0 1 4z"/>
<path transform="translate(152,141)" d="m0 0 1 4z"/>
<path transform="translate(1477,768)" d="m0 0c3 1 3 1 3 1z"/>
<path transform="translate(348,426)" d="m0 0 2 1z" fill="#FDFDFD"/>
<path transform="translate(225,297)" d="m0 0 2 1z" fill="#FDFDFD"/>
</svg>
